RAM/Results.txt
a=00000101, sa=0, s=0, e=0, bus wire=zzzzzzzz
a=00000101, sa=1, s=0, e=0, bus wire=zzzzzzzz
a=00000101, sa=0, s=0, e=0, bus wire=zzzzzzzz
a=00000101, sa=0, s=0, e=1, bus wire=00000110
a=00000110, sa=0, s=0, e=0, bus wire=zzzzzzzz
a=00000110, sa=1, s=0, e=0, bus wire=zzzzzzzz
a=00000110, sa=0, s=0, e=0, bus wire=zzzzzzzz
a=00000110, sa=0, s=0, e=1, bus wire=00000111
a=00000111, sa=0, s=0, e=0, bus wire=zzzzzzzz
a=00000111, sa=1, s=0, e=0, bus wire=zzzzzzzz
a=00000111, sa=0, s=0, e=0, bus wire=zzzzzzzz
a=00000111, sa=0, s=0, e=1, bus wire=00001000
a=00001000, sa=0, s=0, e=0, bus wire=zzzzzzzz
a=00001000, sa=1, s=0, e=0, bus wire=zzzzzzzz
a=00001000, sa=0, s=0, e=0, bus wire=zzzzzzzz
a=00001000, sa=0, s=0, e=1, bus wire=00001001
a=00001001, sa=0, s=0, e=0, bus wire=zzzzzzzz
a=00001001, sa=1, s=0, e=0, bus wire=zzzzzzzz
a=00001001, sa=0, s=0, e=0, bus wire=zzzzzzzz
a=00001001, sa=0, s=0, e=1, bus wire=00001010
a=00001010, sa=0, s=0, e=0, bus wire=zzzzzzzz
a=00001010, sa=1, s=0, e=0, bus wire=zzzzzzzz
a=00001010, sa=0, s=0, e=0, bus wire=zzzzzzzz
a=00001010, sa=0, s=0, e=1, bus wire=00001011
a=00001011, sa=0, s=0, e=0, bus wire=zzzzzzzz
a=00001011, sa=1, s=0, e=0, bus wire=zzzzzzzz
a=00001011, sa=0, s=0, e=0, bus wire=zzzzzzzz
a=00001011, sa=0, s=0, e=1, bus wire=00001100
a=00001100, sa=0, s=0, e=0, bus wire=zzzzzzzz
a=00001100, sa=1, s=0, e=0, bus wire=zzzzzzzz
a=00001100, sa=0, s=0, e=0, bus wire=zzzzzzzz
a=00001100, sa=0, s=0, e=1, bus wire=00001101
a=00001101, sa=0, s=0, e=0, bus wire=zzzzzzzz
a=00001101, sa=1, s=0, e=0, bus wire=zzzzzzzz
a=00001101, sa=0, s=0, e=0, bus wire=zzzzzzzz
a=00001101, sa=0, s=0, e=1, bus wire=00001110
a=00001110, sa=0, s=0, e=0, bus wire=zzzzzzzz
a=00001110, sa=1, s=0, e=0, bus wire=zzzzzzzz
a=00001110, sa=0, s=0, e=0, bus wire=zzzzzzzz
a=00001110, sa=0, s=0, e=1, bus wire=00001111
a=00001111, sa=0, s=0, e=0, bus wire=zzzzzzzz
a=00001111, sa=1, s=0, e=0, bus wire=zzzzzzzz
a=00001111, sa=0, s=0, e=0, bus wire=zzzzzzzz
a=00001111, sa=0, s=0, e=1, bus wire=00010000
a=00010000, sa=0, s=0, e=0, bus wire=zzzzzzzz
a=00010000, sa=1, s=0, e=0, bus wire=zzzzzzzz
a=00010000, sa=0, s=0, e=0, bus wire=zzzzzzzz
a=00010000, sa=0, s=0, e=1, bus wire=00010001
a=00010001, sa=0, s=0, e=0, bus wire=zzzzzzzz
a=00010001, sa=1, s=0, e=0, bus wire=zzzzzzzz
a=00010001, sa=0, s=0, e=0, bus wire=zzzzzzzz
a=00010001, sa=0, s=0, e=1, bus wire=00010010
a=00010010, sa=0, s=0, e=0, bus wire=zzzzzzzz
a=00010010, sa=1, s=0, e=0, bus wire=zzzzzzzz
a=00010010, sa=0, s=0, e=0, bus wire=zzzzzzzz
a=00010010, sa=0, s=0, e=1, bus wire=00010011
a=00010011, sa=0, s=0, e=0, bus wire=zzzzzzzz
a=00010011, sa=1, s=0, e=0, bus wire=zzzzzzzz
a=00010011, sa=0, s=0, e=0, bus wire=zzzzzzzz
a=00010011, sa=0, s=0, e=1, bus wire=00010100
a=00010100, sa=0, s=0, e=0, bus wire=zzzzzzzz
a=00010100, sa=1, s=0, e=0, bus wire=zzzzzzzz
a=00010100, sa=0, s=0, e=0, bus wire=zzzzzzzz
a=00010100, sa=0, s=0, e=1, bus wire=00010101
a=00010101, sa=0, s=0, e=0, bus wire=zzzzzzzz
a=00010101, sa=1, s=0, e=0, bus wire=zzzzzzzz
a=00010101, sa=0, s=0, e=0, bus wire=zzzzzzzz
a=00010101, sa=0, s=0, e=1, bus wire=00010110
a=00010110, sa=0, s=0, e=0, bus wire=zzzzzzzz
a=00010110, sa=1, s=0, e=0, bus wire=zzzzzzzz
a=00010110, sa=0, s=0, e=0, bus wire=zzzzzzzz
a=00010110, sa=0, s=0, e=1, bus wire=00010111
a=00010111, sa=0, s=0, e=0, bus wire=zzzzzzzz
a=00010111, sa=1, s=0, e=0, bus wire=zzzzzzzz
a=00010111, sa=0, s=0, e=0, bus wire=zzzzzzzz
a=00010111, sa=0, s=0, e=1, bus wire=00011000
a=00011000, sa=0, s=0, e=0, bus wire=zzzzzzzz
a=00011000, sa=1, s=0, e=0, bus wire=zzzzzzzz
a=00011000, sa=0, s=0, e=0, bus wire=zzzzzzzz
a=00011000, sa=0, s=0, e=1, bus wire=00011001
a=00011001, sa=0, s=0, e=0, bus wire=zzzzzzzz
a=00011001, sa=1, s=0, e=0, bus wire=zzzzzzzz
a=00011001, sa=0, s=0, e=0, bus wire=zzzzzzzz
a=00011001, sa=0, s=0, e=1, bus wire=00011010
a=00011010, sa=0, s=0, e=0, bus wire=zzzzzzzz
a=00011010, sa=1, s=0, e=0, bus wire=zzzzzzzz
a=00011010, sa=0, s=0, e=0, bus wire=zzzzzzzz
a=00011010, sa=0, s=0, e=1, bus wire=00011011
a=00011011, sa=0, s=0, e=0, bus wire=zzzzzzzz
a=00011011, sa=1, s=0, e=0, bus wire=zzzzzzzz
a=00011011, sa=0, s=0, e=0, bus wire=zzzzzzzz
a=00011011, sa=0, s=0, e=1, bus wire=00011100
a=00011100, sa=0, s=0, e=0, bus wire=zzzzzzzz
a=00011100, sa=1, s=0, e=0, bus wire=zzzzzzzz
a=00011100, sa=0, s=0, e=0, bus wire=zzzzzzzz
a=00011100, sa=0, s=0, e=1, bus wire=00011101
a=00011101, sa=0, s=0, e=0, bus wire=zzzzzzzz
a=00011101, sa=1, s=0, e=0, bus wire=zzzzzzzz
a=00011101, sa=0, s=0, e=0, bus wire=zzzzzzzz
a=00011101, sa=0, s=0, e=1, bus wire=00011110
a=00011110, sa=0, s=0, e=0, bus wire=zzzzzzzz
a=00011110, sa=1, s=0, e=0, bus wire=zzzzzzzz
a=00011110, sa=0, s=0, e=0, bus wire=zzzzzzzz
a=00011110, sa=0, s=0, e=1, bus wire=00011111
a=00011111, sa=0, s=0, e=0, bus wire=zzzzzzzz
a=00011111, sa=1, s=0, e=0, bus wire=zzzzzzzz
a=00011111, sa=0, s=0, e=0, bus wire=zzzzzzzz
a=00011111, sa=0, s=0, e=1, bus wire=00100000
a=00100000, sa=0, s=0, e=0, bus wire=zzzzzzzz
a=00100000, sa=1, s=0, e=0, bus wire=zzzzzzzz
a=00100000, sa=0, s=0, e=0, bus wire=zzzzzzzz
a=00100000, sa=0, s=0, e=1, bus wire=00100001
a=00100001, sa=0, s=0, e=0, bus wire=zzzzzzzz
a=00100001, sa=1, s=0, e=0, bus wire=zzzzzzzz
a=00100001, sa=0, s=0, e=0, bus wire=zzzzzzzz
a=00100001, sa=0, s=0, e=1, bus wire=00100010
a=00100010, sa=0, s=0, e=0, bus wire=zzzzzzzz
a=00100010, sa=1, s=0, e=0, bus wire=zzzzzzzz
a=00100010, sa=0, s=0, e=0, bus wire=zzzzzzzz
a=00100010, sa=0, s=0, e=1, bus wire=00100011
a=00100011, sa=0, s=0, e=0, bus wire=zzzzzzzz
a=00100011, sa=1, s=0, e=0, bus wire=zzzzzzzz
a=00100011, sa=0, s=0, e=0, bus wire=zzzzzzzz
a=00100011, sa=0, s=0, e=1, bus wire=00100100
a=00100100, sa=0, s=0, e=0, bus wire=zzzzzzzz
a=00100100, sa=1, s=0, e=0, bus wire=zzzzzzzz
a=00100100, sa=0, s=0, e=0, bus wire=zzzzzzzz
a=00100100, sa=0, s=0, e=1, bus wire=00100101
a=00100101, sa=0, s=0, e=0, bus wire=zzzzzzzz
a=00100101, sa=1, s=0, e=0, bus wire=zzzzzzzz
a=00100101, sa=0, s=0, e=0, bus wire=zzzzzzzz
a=00100101, sa=0, s=0, e=1, bus wire=00100110
a=00100110, sa=0, s=0, e=0, bus wire=zzzzzzzz
a=00100110, sa=1, s=0, e=0, bus wire=zzzzzzzz
a=00100110, sa=0, s=0, e=0, bus wire=zzzzzzzz
a=00100110, sa=0, s=0, e=1, bus wire=00100111
a=00100111, sa=0, s=0, e=0, bus wire=zzzzzzzz
a=00100111, sa=1, s=0, e=0, bus wire=zzzzzzzz
a=00100111, sa=0, s=0, e=0, bus wire=zzzzzzzz
a=00100111, sa=0, s=0, e=1, bus wire=00101000
a=00101000, sa=0, s=0, e=0, bus wire=zzzzzzzz
a=00101000, sa=1, s=0, e=0, bus wire=zzzzzzzz
a=00101000, sa=0, s=0, e=0, bus wire=zzzzzzzz
a=00101000, sa=0, s=0, e=1, bus wire=00101001
a=00101001, sa=0, s=0, e=0, bus wire=zzzzzzzz
a=00101001, sa=1, s=0, e=0, bus wire=zzzzzzzz
a=00101001, sa=0, s=0, e=0, bus wire=zzzzzzzz
a=00101001, sa=0, s=0, e=1, bus wire=00101010
a=00101010, sa=0, s=0, e=0, bus wire=zzzzzzzz
a=00101010, sa=1, s=0, e=0, bus wire=zzzzzzzz
a=00101010, sa=0, s=0, e=0, bus wire=zzzzzzzz
a=00101010, sa=0, s=0, e=1, bus wire=00101011
a=00101011, sa=0, s=0, e=0, bus wire=zzzzzzzz
a=00101011, sa=1, s=0, e=0, bus wire=zzzzzzzz
a=00101011, sa=0, s=0, e=0, bus wire=zzzzzzzz
a=00101011, sa=0, s=0, e=1, bus wire=00101100
a=00101100, sa=0, s=0, e=0, bus wire=zzzzzzzz
a=00101100, sa=1, s=0, e=0, bus wire=zzzzzzzz
a=00101100, sa=0, s=0, e=0, bus wire=zzzzzzzz
a=00101100, sa=0, s=0, e=1, bus wire=00101101
a=00101101, sa=0, s=0, e=0, bus wire=zzzzzzzz
a=00101101, sa=1, s=0, e=0, bus wire=zzzzzzzz
a=00101101, sa=0, s=0, e=0, bus wire=zzzzzzzz
a=00101101, sa=0, s=0, e=1, bus wire=00101110
a=00101110, sa=0, s=0, e=0, bus wire=zzzzzzzz
a=00101110, sa=1, s=0, e=0, bus wire=zzzzzzzz
a=00101110, sa=0, s=0, e=0, bus wire=zzzzzzzz
a=00101110, sa=0, s=0, e=1, bus wire=00101111
a=00101111, sa=0, s=0, e=0, bus wire=zzzzzzzz
a=00101111, sa=1, s=0, e=0, bus wire=zzzzzzzz
a=00101111, sa=0, s=0, e=0, bus wire=zzzzzzzz
a=00101111, sa=0, s=0, e=1, bus wire=00110000
a=00110000, sa=0, s=0, e=0, bus wire=zzzzzzzz
a=00110000, sa=1, s=0, e=0, bus wire=zzzzzzzz
a=00110000, sa=0, s=0, e=0, bus wire=zzzzzzzz
a=00110000, sa=0, s=0, e=1, bus wire=00110001
a=00110001, sa=0, s=0, e=0, bus wire=zzzzzzzz
a=00110001, sa=1, s=0, e=0, bus wire=zzzzzzzz
a=00110001, sa=0, s=0, e=0, bus wire=zzzzzzzz
a=00110001, sa=0, s=0, e=1, bus wire=00110010
a=00110010, sa=0, s=0, e=0, bus wire=zzzzzzzz
a=00110010, sa=1, s=0, e=0, bus wire=zzzzzzzz
a=00110010, sa=0, s=0, e=0, bus wire=zzzzzzzz
a=00110010, sa=0, s=0, e=1, bus wire=00110011
a=00110011, sa=0, s=0, e=0, bus wire=zzzzzzzz
a=00110011, sa=1, s=0, e=0, bus wire=zzzzzzzz
a=00110011, sa=0, s=0, e=0, bus wire=zzzzzzzz
a=00110011, sa=0, s=0, e=1, bus wire=00110100
a=00110100, sa=0, s=0, e=0, bus wire=zzzzzzzz
a=00110100, sa=1, s=0, e=0, bus wire=zzzzzzzz
a=00110100, sa=0, s=0, e=0, bus wire=zzzzzzzz
a=00110100, sa=0, s=0, e=1, bus wire=00110101
a=00110101, sa=0, s=0, e=0, bus wire=zzzzzzzz
a=00110101, sa=1, s=0, e=0, bus wire=zzzzzzzz
a=00110101, sa=0, s=0, e=0, bus wire=zzzzzzzz
a=00110101, sa=0, s=0, e=1, bus wire=00110110
a=00110110, sa=0, s=0, e=0, bus wire=zzzzzzzz
a=00110110, sa=1, s=0, e=0, bus wire=zzzzzzzz
a=00110110, sa=0, s=0, e=0, bus wire=zzzzzzzz
a=00110110, sa=0, s=0, e=1, bus wire=00110111
a=00110111, sa=0, s=0, e=0, bus wire=zzzzzzzz
a=00110111, sa=1, s=0, e=0, bus wire=zzzzzzzz
a=00110111, sa=0, s=0, e=0, bus wire=zzzzzzzz
a=00110111, sa=0, s=0, e=1, bus wire=00111000
a=00111000, sa=0, s=0, e=0, bus wire=zzzzzzzz
a=00111000, sa=1, s=0, e=0, bus wire=zzzzzzzz
a=00111000, sa=0, s=0, e=0, bus wire=zzzzzzzz
a=00111000, sa=0, s=0, e=1, bus wire=00111001
a=00111001, sa=0, s=0, e=0, bus wire=zzzzzzzz
a=00111001, sa=1, s=0, e=0, bus wire=zzzzzzzz
a=00111001, sa=0, s=0, e=0, bus wire=zzzzzzzz
a=00111001, sa=0, s=0, e=1, bus wire=00111010
a=00111010, sa=0, s=0, e=0, bus wire=zzzzzzzz
a=00111010, sa=1, s=0, e=0, bus wire=zzzzzzzz
a=00111010, sa=0, s=0, e=0, bus wire=zzzzzzzz
a=00111010, sa=0, s=0, e=1, bus wire=00111011
a=00111011, sa=0, s=0, e=0, bus wire=zzzzzzzz
a=00111011, sa=1, s=0, e=0, bus wire=zzzzzzzz
a=00111011, sa=0, s=0, e=0, bus wire=zzzzzzzz
a=00111011, sa=0, s=0, e=1, bus wire=00111100
a=00111100, sa=0, s=0, e=0, bus wire=zzzzzzzz
a=00111100, sa=1, s=0, e=0, bus wire=zzzzzzzz
a=00111100, sa=0, s=0, e=0, bus wire=zzzzzzzz
a=00111100, sa=0, s=0, e=1, bus wire=00111101
a=00111101, sa=0, s=0, e=0, bus wire=zzzzzzzz
a=00111101, sa=1, s=0, e=0, bus wire=zzzzzzzz
a=00111101, sa=0, s=0, e=0, bus wire=zzzzzzzz
a=00111101, sa=0, s=0, e=1, bus wire=00111110
a=00111110, sa=0, s=0, e=0, bus wire=zzzzzzzz
a=00111110, sa=1, s=0, e=0, bus wire=zzzzzzzz
a=00111110, sa=0, s=0, e=0, bus wire=zzzzzzzz
a=00111110, sa=0, s=0, e=1, bus wire=00111111
a=00111111, sa=0, s=0, e=0, bus wire=zzzzzzzz
a=00111111, sa=1, s=0, e=0, bus wire=zzzzzzzz
a=00111111, sa=0, s=0, e=0, bus wire=zzzzzzzz
a=00111111, sa=0, s=0, e=1, bus wire=01000000
a=01000000, sa=0, s=0, e=0, bus wire=zzzzzzzz
a=01000000, sa=1, s=0, e=0, bus wire=zzzzzzzz
a=01000000, sa=0, s=0, e=0, bus wire=zzzzzzzz
a=01000000, sa=0, s=0, e=1, bus wire=01000001
a=01000001, sa=0, s=0, e=0, bus wire=zzzzzzzz
a=01000001, sa=1, s=0, e=0, bus wire=zzzzzzzz
a=01000001, sa=0, s=0, e=0, bus wire=zzzzzzzz
a=01000001, sa=0, s=0, e=1, bus wire=01000010
a=01000010, sa=0, s=0, e=0, bus wire=zzzzzzzz
a=01000010, sa=1, s=0, e=0, bus wire=zzzzzzzz
a=01000010, sa=0, s=0, e=0, bus wire=zzzzzzzz
a=01000010, sa=0, s=0, e=1, bus wire=01000011
a=01000011, sa=0, s=0, e=0, bus wire=zzzzzzzz
a=01000011, sa=1, s=0, e=0, bus wire=zzzzzzzz
a=01000011, sa=0, s=0, e=0, bus wire=zzzzzzzz
a=01000011, sa=0, s=0, e=1, bus wire=01000100
a=01000100, sa=0, s=0, e=0, bus wire=zzzzzzzz
a=01000100, sa=1, s=0, e=0, bus wire=zzzzzzzz
a=01000100, sa=0, s=0, e=0, bus wire=zzzzzzzz
a=01000100, sa=0, s=0, e=1, bus wire=01000101
a=01000101, sa=0, s=0, e=0, bus wire=zzzzzzzz
a=01000101, sa=1, s=0, e=0, bus wire=zzzzzzzz
a=01000101, sa=0, s=0, e=0, bus wire=zzzzzzzz
a=01000101, sa=0, s=0, e=1, bus wire=01000110
a=01000110, sa=0, s=0, e=0, bus wire=zzzzzzzz
a=01000110, sa=1, s=0, e=0, bus wire=zzzzzzzz
a=01000110, sa=0, s=0, e=0, bus wire=zzzzzzzz
a=01000110, sa=0, s=0, e=1, bus wire=01000111
a=01000111, sa=0, s=0, e=0, bus wire=zzzzzzzz
a=01000111, sa=1, s=0, e=0, bus wire=zzzzzzzz
a=01000111, sa=0, s=0, e=0, bus wire=zzzzzzzz
a=01000111, sa=0, s=0, e=1, bus wire=01001000
a=01001000, sa=0, s=0, e=0, bus wire=zzzzzzzz
a=01001000, sa=1, s=0, e=0, bus wire=zzzzzzzz
a=01001000, sa=0, s=0, e=0, bus wire=zzzzzzzz
a=01001000, sa=0, s=0, e=1, bus wire=01001001
a=01001001, sa=0, s=0, e=0, bus wire=zzzzzzzz
a=01001001, sa=1, s=0, e=0, bus wire=zzzzzzzz
a=01001001, sa=0, s=0, e=0, bus wire=zzzzzzzz
a=01001001, sa=0, s=0, e=1, bus wire=01001010
a=01001010, sa=0, s=0, e=0, bus wire=zzzzzzzz
a=01001010, sa=1, s=0, e=0, bus wire=zzzzzzzz
a=01001010, sa=0, s=0, e=0, bus wire=zzzzzzzz
a=01001010, sa=0, s=0, e=1, bus wire=01001011
a=01001011, sa=0, s=0, e=0, bus wire=zzzzzzzz
a=01001011, sa=1, s=0, e=0, bus wire=zzzzzzzz
a=01001011, sa=0, s=0, e=0, bus wire=zzzzzzzz
a=01001011, sa=0, s=0, e=1, bus wire=01001100
a=01001100, sa=0, s=0, e=0, bus wire=zzzzzzzz
a=01001100, sa=1, s=0, e=0, bus wire=zzzzzzzz
a=01001100, sa=0, s=0, e=0, bus wire=zzzzzzzz
a=01001100, sa=0, s=0, e=1, bus wire=01001101
a=01001101, sa=0, s=0, e=0, bus wire=zzzzzzzz
a=01001101, sa=1, s=0, e=0, bus wire=zzzzzzzz
a=01001101, sa=0, s=0, e=0, bus wire=zzzzzzzz
a=01001101, sa=0, s=0, e=1, bus wire=01001110
a=01001110, sa=0, s=0, e=0, bus wire=zzzzzzzz
a=01001110, sa=1, s=0, e=0, bus wire=zzzzzzzz
a=01001110, sa=0, s=0, e=0, bus wire=zzzzzzzz
a=01001110, sa=0, s=0, e=1, bus wire=01001111
a=01001111, sa=0, s=0, e=0, bus wire=zzzzzzzz
a=01001111, sa=1, s=0, e=0, bus wire=zzzzzzzz
a=01001111, sa=0, s=0, e=0, bus wire=zzzzzzzz
a=01001111, sa=0, s=0, e=1, bus wire=01010000
a=01010000, sa=0, s=0, e=0, bus wire=zzzzzzzz
a=01010000, sa=1, s=0, e=0, bus wire=zzzzzzzz
a=01010000, sa=0, s=0, e=0, bus wire=zzzzzzzz
a=01010000, sa=0, s=0, e=1, bus wire=01010001
a=01010001, sa=0, s=0, e=0, bus wire=zzzzzzzz
a=01010001, sa=1, s=0, e=0, bus wire=zzzzzzzz
a=01010001, sa=0, s=0, e=0, bus wire=zzzzzzzz
a=01010001, sa=0, s=0, e=1, bus wire=01010010
a=01010010, sa=0, s=0, e=0, bus wire=zzzzzzzz
a=01010010, sa=1, s=0, e=0, bus wire=zzzzzzzz
a=01010010, sa=0, s=0, e=0, bus wire=zzzzzzzz
a=01010010, sa=0, s=0, e=1, bus wire=01010011
a=01010011, sa=0, s=0, e=0, bus wire=zzzzzzzz
a=01010011, sa=1, s=0, e=0, bus wire=zzzzzzzz
a=01010011, sa=0, s=0, e=0, bus wire=zzzzzzzz
a=01010011, sa=0, s=0, e=1, bus wire=01010100
a=01010100, sa=0, s=0, e=0, bus wire=zzzzzzzz
a=01010100, sa=1, s=0, e=0, bus wire=zzzzzzzz
a=01010100, sa=0, s=0, e=0, bus wire=zzzzzzzz
a=01010100, sa=0, s=0, e=1, bus wire=01010101
a=01010101, sa=0, s=0, e=0, bus wire=zzzzzzzz
a=01010101, sa=1, s=0, e=0, bus wire=zzzzzzzz
a=01010101, sa=0, s=0, e=0, bus wire=zzzzzzzz
a=01010101, sa=0, s=0, e=1, bus wire=01010110
a=01010110, sa=0, s=0, e=0, bus wire=zzzzzzzz
a=01010110, sa=1, s=0, e=0, bus wire=zzzzzzzz
a=01010110, sa=0, s=0, e=0, bus wire=zzzzzzzz
a=01010110, sa=0, s=0, e=1, bus wire=01010111
a=01010111, sa=0, s=0, e=0, bus wire=zzzzzzzz
a=01010111, sa=1, s=0, e=0, bus wire=zzzzzzzz
a=01010111, sa=0, s=0, e=0, bus wire=zzzzzzzz
a=01010111, sa=0, s=0, e=1, bus wire=01011000
a=01011000, sa=0, s=0, e=0, bus wire=zzzzzzzz
a=01011000, sa=1, s=0, e=0, bus wire=zzzzzzzz
a=01011000, sa=0, s=0, e=0, bus wire=zzzzzzzz
a=01011000, sa=0, s=0, e=1, bus wire=01011001
a=01011001, sa=0, s=0, e=0, bus wire=zzzzzzzz
a=01011001, sa=1, s=0, e=0, bus wire=zzzzzzzz
a=01011001, sa=0, s=0, e=0, bus wire=zzzzzzzz
a=01011001, sa=0, s=0, e=1, bus wire=01011010
a=01011010, sa=0, s=0, e=0, bus wire=zzzzzzzz
a=01011010, sa=1, s=0, e=0, bus wire=zzzzzzzz
a=01011010, sa=0, s=0, e=0, bus wire=zzzzzzzz
a=01011010, sa=0, s=0, e=1, bus wire=01011011
a=01011011, sa=0, s=0, e=0, bus wire=zzzzzzzz
a=01011011, sa=1, s=0, e=0, bus wire=zzzzzzzz
a=01011011, sa=0, s=0, e=0, bus wire=zzzzzzzz
a=01011011, sa=0, s=0, e=1, bus wire=01011100
a=01011100, sa=0, s=0, e=0, bus wire=zzzzzzzz
a=01011100, sa=1, s=0, e=0, bus wire=zzzzzzzz
a=01011100, sa=0, s=0, e=0, bus wire=zzzzzzzz
a=01011100, sa=0, s=0, e=1, bus wire=01011101
a=01011101, sa=0, s=0, e=0, bus wire=zzzzzzzz
a=01011101, sa=1, s=0, e=0, bus wire=zzzzzzzz
a=01011101, sa=0, s=0, e=0, bus wire=zzzzzzzz
a=01011101, sa=0, s=0, e=1, bus wire=01011110
a=01011110, sa=0, s=0, e=0, bus wire=zzzzzzzz
a=01011110, sa=1, s=0, e=0, bus wire=zzzzzzzz
a=01011110, sa=0, s=0, e=0, bus wire=zzzzzzzz
a=01011110, sa=0, s=0, e=1, bus wire=01011111
a=01011111, sa=0, s=0, e=0, bus wire=zzzzzzzz
a=01011111, sa=1, s=0, e=0, bus wire=zzzzzzzz
a=01011111, sa=0, s=0, e=0, bus wire=zzzzzzzz
a=01011111, sa=0, s=0, e=1, bus wire=01100000
a=01100000, sa=0, s=0, e=0, bus wire=zzzzzzzz
a=01100000, sa=1, s=0, e=0, bus wire=zzzzzzzz
a=01100000, sa=0, s=0, e=0, bus wire=zzzzzzzz
a=01100000, sa=0, s=0, e=1, bus wire=01100001
a=01100001, sa=0, s=0, e=0, bus wire=zzzzzzzz
a=01100001, sa=1, s=0, e=0, bus wire=zzzzzzzz
a=01100001, sa=0, s=0, e=0, bus wire=zzzzzzzz
a=01100001, sa=0, s=0, e=1, bus wire=01100010
a=01100010, sa=0, s=0, e=0, bus wire=zzzzzzzz
a=01100010, sa=1, s=0, e=0, bus wire=zzzzzzzz
a=01100010, sa=0, s=0, e=0, bus wire=zzzzzzzz
a=01100010, sa=0, s=0, e=1, bus wire=01100011
a=01100011, sa=0, s=0, e=0, bus wire=zzzzzzzz
a=01100011, sa=1, s=0, e=0, bus wire=zzzzzzzz
a=01100011, sa=0, s=0, e=0, bus wire=zzzzzzzz
a=01100011, sa=0, s=0, e=1, bus wire=01100100
a=01100100, sa=0, s=0, e=0, bus wire=zzzzzzzz
a=01100100, sa=1, s=0, e=0, bus wire=zzzzzzzz
a=01100100, sa=0, s=0, e=0, bus wire=zzzzzzzz
a=01100100, sa=0, s=0, e=1, bus wire=01100101
a=01100101, sa=0, s=0, e=0, bus wire=zzzzzzzz
a=01100101, sa=1, s=0, e=0, bus wire=zzzzzzzz
a=01100101, sa=0, s=0, e=0, bus wire=zzzzzzzz
a=01100101, sa=0, s=0, e=1, bus wire=01100110
a=01100110, sa=0, s=0, e=0, bus wire=zzzzzzzz
a=01100110, sa=1, s=0, e=0, bus wire=zzzzzzzz
a=01100110, sa=0, s=0, e=0, bus wire=zzzzzzzz
a=01100110, sa=0, s=0, e=1, bus wire=01100111
a=01100111, sa=0, s=0, e=0, bus wire=zzzzzzzz
a=01100111, sa=1, s=0, e=0, bus wire=zzzzzzzz
a=01100111, sa=0, s=0, e=0, bus wire=zzzzzzzz
a=01100111, sa=0, s=0, e=1, bus wire=01101000
a=01101000, sa=0, s=0, e=0, bus wire=zzzzzzzz
a=01101000, sa=1, s=0, e=0, bus wire=zzzzzzzz
a=01101000, sa=0, s=0, e=0, bus wire=zzzzzzzz
a=01101000, sa=0, s=0, e=1, bus wire=01101001
a=01101001, sa=0, s=0, e=0, bus wire=zzzzzzzz
a=01101001, sa=1, s=0, e=0, bus wire=zzzzzzzz
a=01101001, sa=0, s=0, e=0, bus wire=zzzzzzzz
a=01101001, sa=0, s=0, e=1, bus wire=01101010
a=01101010, sa=0, s=0, e=0, bus wire=zzzzzzzz
a=01101010, sa=1, s=0, e=0, bus wire=zzzzzzzz
a=01101010, sa=0, s=0, e=0, bus wire=zzzzzzzz
a=01101010, sa=0, s=0, e=1, bus wire=01101011
a=01101011, sa=0, s=0, e=0, bus wire=zzzzzzzz
a=01101011, sa=1, s=0, e=0, bus wire=zzzzzzzz
a=01101011, sa=0, s=0, e=0, bus wire=zzzzzzzz
a=01101011, sa=0, s=0, e=1, bus wire=01101100
a=01101100, sa=0, s=0, e=0, bus wire=zzzzzzzz
a=01101100, sa=1, s=0, e=0, bus wire=zzzzzzzz
a=01101100, sa=0, s=0, e=0, bus wire=zzzzzzzz
a=01101100, sa=0, s=0, e=1, bus wire=01101101
a=01101101, sa=0, s=0, e=0, bus wire=zzzzzzzz
a=01101101, sa=1, s=0, e=0, bus wire=zzzzzzzz
a=01101101, sa=0, s=0, e=0, bus wire=zzzzzzzz
a=01101101, sa=0, s=0, e=1, bus wire=01101110
a=01101110, sa=0, s=0, e=0, bus wire=zzzzzzzz
a=01101110, sa=1, s=0, e=0, bus wire=zzzzzzzz
a=01101110, sa=0, s=0, e=0, bus wire=zzzzzzzz
a=01101110, sa=0, s=0, e=1, bus wire=01101111
a=01101111, sa=0, s=0, e=0, bus wire=zzzzzzzz
a=01101111, sa=1, s=0, e=0, bus wire=zzzzzzzz
a=01101111, sa=0, s=0, e=0, bus wire=zzzzzzzz
a=01101111, sa=0, s=0, e=1, bus wire=01110000
a=01110000, sa=0, s=0, e=0, bus wire=zzzzzzzz
a=01110000, sa=1, s=0, e=0, bus wire=zzzzzzzz
a=01110000, sa=0, s=0, e=0, bus wire=zzzzzzzz
a=01110000, sa=0, s=0, e=1, bus wire=01110001
a=01110001, sa=0, s=0, e=0, bus wire=zzzzzzzz
a=01110001, sa=1, s=0, e=0, bus wire=zzzzzzzz
a=01110001, sa=0, s=0, e=0, bus wire=zzzzzzzz
a=01110001, sa=0, s=0, e=1, bus wire=01110010
a=01110010, sa=0, s=0, e=0, bus wire=zzzzzzzz
a=01110010, sa=1, s=0, e=0, bus wire=zzzzzzzz
a=01110010, sa=0, s=0, e=0, bus wire=zzzzzzzz
a=01110010, sa=0, s=0, e=1, bus wire=01110011
a=01110011, sa=0, s=0, e=0, bus wire=zzzzzzzz
a=01110011, sa=1, s=0, e=0, bus wire=zzzzzzzz
a=01110011, sa=0, s=0, e=0, bus wire=zzzzzzzz
a=01110011, sa=0, s=0, e=1, bus wire=01110100
a=01110100, sa=0, s=0, e=0, bus wire=zzzzzzzz
a=01110100, sa=1, s=0, e=0, bus wire=zzzzzzzz
a=01110100, sa=0, s=0, e=0, bus wire=zzzzzzzz
a=01110100, sa=0, s=0, e=1, bus wire=01110101
a=01110101, sa=0, s=0, e=0, bus wire=zzzzzzzz
a=01110101, sa=1, s=0, e=0, bus wire=zzzzzzzz
a=01110101, sa=0, s=0, e=0, bus wire=zzzzzzzz
a=01110101, sa=0, s=0, e=1, bus wire=01110110
a=01110110, sa=0, s=0, e=0, bus wire=zzzzzzzz
a=01110110, sa=1, s=0, e=0, bus wire=zzzzzzzz
a=01110110, sa=0, s=0, e=0, bus wire=zzzzzzzz
a=01110110, sa=0, s=0, e=1, bus wire=01110111
a=01110111, sa=0, s=0, e=0, bus wire=zzzzzzzz
a=01110111, sa=1, s=0, e=0, bus wire=zzzzzzzz
a=01110111, sa=0, s=0, e=0, bus wire=zzzzzzzz
a=01110111, sa=0, s=0, e=1, bus wire=01111000
a=01111000, sa=0, s=0, e=0, bus wire=zzzzzzzz
a=01111000, sa=1, s=0, e=0, bus wire=zzzzzzzz
a=01111000, sa=0, s=0, e=0, bus wire=zzzzzzzz
a=01111000, sa=0, s=0, e=1, bus wire=01111001
a=01111001, sa=0, s=0, e=0, bus wire=zzzzzzzz
a=01111001, sa=1, s=0, e=0, bus wire=zzzzzzzz
a=01111001, sa=0, s=0, e=0, bus wire=zzzzzzzz
a=01111001, sa=0, s=0, e=1, bus wire=01111010
a=01111010, sa=0, s=0, e=0, bus wire=zzzzzzzz
a=01111010, sa=1, s=0, e=0, bus wire=zzzzzzzz
a=01111010, sa=0, s=0, e=0, bus wire=zzzzzzzz
a=01111010, sa=0, s=0, e=1, bus wire=01111011
