Processor/ASM_bin_ROM_files/Sum5/cpu_b_test.vcd
$date
	Fri Jul 14 17:20:28 2023
$end
$version
	Icarus Verilog
$end
$timescale
	1ps
$end
$scope module cpu_b_test $end
$var wire 1 ! step_clk $end
$var wire 1 " set_ram $end
$var wire 1 # set_output $end
$var wire 1 $ set_mar $end
$var wire 1 % loading_ram $end
$var wire 8 & instruction [7:0] $end
$var wire 1 ' enable_input $end
$var wire 1 ( data_address $end
$var wire 8 ) cpu_interface [7:0] $end
$var wire 1 * clk_s $end
$var wire 1 + clk_e $end
$var wire 8 , address [7:0] $end
$var reg 1 - cpu_reset $end
$var reg 1 . init_reset $end
$var reg 1 / sys_clk $end
$scope module CPU $end
$var wire 1 / in_clk $end
$var wire 1 - reset $end
$var wire 8 0 to_tmp [7:0] $end
$var wire 8 1 to_ram [7:0] $end
$var wire 8 2 to_mar [7:0] $end
$var wire 8 3 to_ir [7:0] $end
$var wire 8 4 to_io [7:0] $end
$var wire 8 5 to_iar [7:0] $end
$var wire 8 6 to_gpr [7:0] $end
$var wire 8 7 to_alua [7:0] $end
$var wire 8 8 tmp_to_bus1 [7:0] $end
$var wire 1 ! step_clk $end
$var wire 6 9 step [1:6] $end
$var wire 1 " set_ram_init $end
$var wire 1 # set_output $end
$var wire 1 $ set_mar_init $end
$var wire 1 : s_tmp $end
$var wire 1 ; s_ram $end
$var wire 1 < s_r3 $end
$var wire 1 = s_r2 $end
$var wire 1 > s_r1 $end
$var wire 1 ? s_r0 $end
$var wire 1 @ s_mar $end
$var wire 1 A s_ir $end
$var wire 1 B s_iar $end
$var wire 1 C s_flags $end
$var wire 1 D s_acc $end
$var wire 1 E mux_set_ram $end
$var wire 1 F mux_set_mar $end
$var wire 8 G mux_ram_in [7:0] $end
$var wire 8 H mux_mar_in [7:0] $end
$var wire 1 % loading_ram $end
$var wire 8 I ir_to_control [0:7] $end
$var wire 1 J ir_io $end
$var wire 4 K instr_to_data_bus_io [0:3] $end
$var wire 8 L instr_from_rom [7:0] $end
$var wire 8 M from_ram [7:0] $end
$var wire 8 N from_io [7:0] $end
$var wire 8 O from_iar [7:0] $end
$var wire 8 P from_gpr [7:0] $end
$var wire 8 Q from_acc [7:0] $end
$var wire 4 R flags_to_control [3:0] $end
$var wire 1 S flags_detected $end
$var wire 1 ' enable_input $end
$var wire 1 T e_ram $end
$var wire 1 U e_r3 $end
$var wire 1 V e_r2 $end
$var wire 1 W e_r1 $end
$var wire 1 X e_r0 $end
$var wire 1 Y e_iar $end
$var wire 1 Z e_bus1 $end
$var wire 1 [ e_acc $end
$var wire 1 ( data_address $end
$var wire 8 \ cpu_interface [7:0] $end
$var wire 1 * clk_s $end
$var wire 1 + clk_e $end
$var wire 8 ] bus1_to_alub [7:0] $end
$var wire 4 ^ alu_to_flags [3:0] $end
$var wire 8 _ alu_to_acc [7:0] $end
$var wire 3 ` alu_opcode [2:0] $end
$var wire 8 a addr_init [7:0] $end
$var wire 1 b IO_input_output $end
$var wire 1 c IO_data_address $end
$var wire 1 d IO_clk_s $end
$var wire 1 e IO_clk_e $end
$scope module ACC $end
$var wire 1 D s $end
$var wire 1 [ e $end
$var wire 8 f d_out [7:0] $end
$var wire 8 g d_in [7:0] $end
$var reg 8 h data_reg [7:0] $end
$upscope $end
$scope module ALU $end
$var wire 1 i c_in $end
$var wire 1 j zero $end
$var wire 3 k op [2:0] $end
$var wire 1 l equal $end
$var wire 1 m c_out $end
$var wire 1 n a_larger $end
$var wire 8 o C [7:0] $end
$var wire 8 p B [7:0] $end
$var wire 8 q A [7:0] $end
$var parameter 3 r ADD $end
$var parameter 3 s AND $end
$var parameter 3 t CMP $end
$var parameter 3 u LSH $end
$var parameter 3 v NOT $end
$var parameter 3 w OR $end
$var parameter 3 x RSH $end
$var parameter 3 y XOR $end
$var reg 9 z out_reg [8:0] $end
$upscope $end
$scope module BUS $end
$var wire 8 { i_acc [7:0] $end
$var wire 4 | instr [0:3] $end
$var wire 1 J ir_io $end
$var wire 6 } step [1:6] $end
$var wire 8 ~ o_tmp [7:0] $end
$var wire 8 !" o_ram [7:0] $end
$var wire 8 "" o_mar [7:0] $end
$var wire 8 #" o_ir [7:0] $end
$var wire 8 $" o_io [7:0] $end
$var wire 8 %" o_iar [7:0] $end
$var wire 8 &" o_gpr [7:0] $end
$var wire 8 '" o_alua [7:0] $end
$var wire 8 (" i_ram [7:0] $end
$var wire 8 )" i_io [7:0] $end
$var wire 8 *" i_iar [7:0] $end
$var wire 8 +" i_gpr [7:0] $end
$var wire 1 S flags_detected $end
$upscope $end
$scope module BUS1 $end
$var wire 1 Z e_b1 $end
$var wire 8 ," d_out [7:0] $end
$var wire 8 -" d_in [7:0] $end
$upscope $end
$scope module CONTROL_UNIT $end
$var wire 1 Z BUS1 $end
$var wire 1 e IO_clk_e $end
$var wire 1 d IO_clk_s $end
$var wire 1 c IO_data_or_address $end
$var wire 1 b IO_input_or_output $end
$var wire 1 ." a10 $end
$var wire 1 /" a11 $end
$var wire 1 0" a12 $end
$var wire 1 1" a13 $end
$var wire 1 2" a14 $end
$var wire 1 3" a15 $end
$var wire 1 4" a16 $end
$var wire 1 5" a17 $end
$var wire 1 6" a18 $end
$var wire 1 7" a19 $end
$var wire 1 8" a1a $end
$var wire 1 9" a1b $end
$var wire 1 :" a1c $end
$var wire 1 ;" a1d $end
$var wire 1 <" a1e $end
$var wire 1 =" a1f $end
$var wire 1 >" a20 $end
$var wire 1 ?" a22 $end
$var wire 1 @" a23 $end
$var wire 1 A" a24 $end
$var wire 1 B" a25 $end
$var wire 1 C" a26 $end
$var wire 1 D" a27 $end
$var wire 1 E" a28 $end
$var wire 1 F" a29 $end
$var wire 1 G" a2a $end
$var wire 1 H" a2b $end
$var wire 1 I" a5 $end
$var wire 1 J" a6 $end
$var wire 1 K" a7 $end
$var wire 1 L" a8 $end
$var wire 1 M" a9 $end
$var wire 1 N" aa $end
$var wire 1 O" ab $end
$var wire 1 P" ac $end
$var wire 1 [ e_ACC $end
$var wire 1 Y e_IAR $end
$var wire 1 X e_R0 $end
$var wire 1 W e_R1 $end
$var wire 1 V e_R2 $end
$var wire 1 U e_R3 $end
$var wire 1 T e_RAM $end
$var wire 1 Q" flagA $end
$var wire 1 R" flagC $end
$var wire 1 S" flagE $end
$var wire 1 T" flagZ $end
$var wire 1 S flags_detected $end
$var wire 1 U" n1 $end
$var wire 1 V" n2 $end
$var wire 1 W" na1 $end
$var wire 1 X" o10 $end
$var wire 1 Y" o6 $end
$var wire 1 Z" o7 $end
$var wire 1 [" o8 $end
$var wire 1 \" o9 $end
$var wire 1 ]" oa $end
$var wire 1 ^" ob $end
$var wire 1 _" oc $end
$var wire 1 `" od $end
$var wire 1 a" oe $end
$var wire 1 b" of $end
$var wire 1 - reset $end
$var wire 1 D s_ACC $end
$var wire 1 C s_FLAGS $end
$var wire 1 B s_IAR $end
$var wire 1 A s_IR $end
$var wire 1 @ s_MAR $end
$var wire 1 ? s_R0 $end
$var wire 1 > s_R1 $end
$var wire 1 = s_R2 $end
$var wire 1 < s_R3 $end
$var wire 1 ; s_RAM $end
$var wire 1 : s_TMP $end
$var wire 1 / sys_clk $end
$var wire 1 ! stepper_clk $end
$var wire 6 c" step [1:6] $end
$var wire 8 d" instruction [0:7] $end
$var wire 4 e" flags [3:0] $end
$var wire 8 f" dec4_out [7:0] $end
$var wire 3 g" dec4_in [2:0] $end
$var wire 4 h" dec3_out [3:0] $end
$var wire 2 i" dec3_in [1:0] $end
$var wire 4 j" dec2_out [3:0] $end
$var wire 2 k" dec2_in [1:0] $end
$var wire 4 l" dec1_out [3:0] $end
$var wire 2 m" dec1_in [1:0] $end
$var wire 1 * clk_s $end
$var wire 1 + clk_e $end
$var wire 3 n" OPCODE [2:0] $end
$scope module CLOCKS $end
$var wire 1 / sys_clk $end
$var wire 1 * clk_s $end
$var wire 1 + clk_e $end
$var wire 1 ! clk $end
$var reg 2 o" clk_reg [1:0] $end
$upscope $end
$scope module DEC1 $end
$var wire 2 p" dec_in [1:0] $end
$var wire 4 q" dec_out [3:0] $end
$upscope $end
$scope module DEC2 $end
$var wire 2 r" dec_in [1:0] $end
$var wire 4 s" dec_out [3:0] $end
$upscope $end
$scope module DEC3 $end
$var wire 2 t" dec_in [1:0] $end
$var wire 4 u" dec_out [3:0] $end
$upscope $end
$scope module DEC4 $end
$var wire 3 v" dec_in [2:0] $end
$var wire 8 w" dec_out [7:0] $end
$upscope $end
$scope module STEPPER $end
$var wire 1 ! clk $end
$var wire 1 - reset $end
$var wire 6 x" step [5:0] $end
$var reg 7 y" step_reg [6:0] $end
$upscope $end
$upscope $end
$scope module FLAGS $end
$var wire 4 z" caez_in [3:0] $end
$var wire 1 C s $end
$var reg 4 {" caez_out [3:0] $end
$upscope $end
$scope module GPR $end
$var wire 8 |" d_in [7:0] $end
$var wire 1 X e_r0 $end
$var wire 1 W e_r1 $end
$var wire 1 V e_r2 $end
$var wire 1 U e_r3 $end
$var wire 1 ? s_r0 $end
$var wire 1 > s_r1 $end
$var wire 1 = s_r2 $end
$var wire 1 < s_r3 $end
$var wire 8 }" o_r3 [7:0] $end
$var wire 8 ~" o_r2 [7:0] $end
$var wire 8 !# o_r1 [7:0] $end
$var wire 8 "# o_r0 [7:0] $end
$var wire 8 ## d_out [7:0] $end
$scope module R0 $end
$var wire 8 $# d_in [7:0] $end
$var wire 1 X e $end
$var wire 1 ? s $end
$var wire 8 %# d_out [7:0] $end
$var reg 8 &# data_reg [7:0] $end
$upscope $end
$scope module R1 $end
$var wire 8 '# d_in [7:0] $end
$var wire 1 W e $end
$var wire 1 > s $end
$var wire 8 (# d_out [7:0] $end
$var reg 8 )# data_reg [7:0] $end
$upscope $end
$scope module R2 $end
$var wire 8 *# d_in [7:0] $end
$var wire 1 V e $end
$var wire 1 = s $end
$var wire 8 +# d_out [7:0] $end
$var reg 8 ,# data_reg [7:0] $end
$upscope $end
$scope module R3 $end
$var wire 8 -# d_in [7:0] $end
$var wire 1 U e $end
$var wire 1 < s $end
$var wire 8 .# d_out [7:0] $end
$var reg 8 /# data_reg [7:0] $end
$upscope $end
$upscope $end
$scope module IAR $end
$var wire 8 0# a_in [7:0] $end
$var wire 1 Y e $end
$var wire 1 1# reset $end
$var wire 1 B s $end
$var wire 8 2# a_out [7:0] $end
$var reg 8 3# addr_reg [7:0] $end
$upscope $end
$scope module IO $end
$var wire 1 e IO_clk_e $end
$var wire 1 d IO_clk_s $end
$var wire 1 c IO_data_address $end
$var wire 1 b IO_input_output $end
$var wire 8 4# cpu_out [7:0] $end
$var wire 1 ( data_address $end
$var wire 1 ' enable_input $end
$var wire 4 5# instruction [0:3] $end
$var wire 1 # set_output $end
$var wire 8 6# cpu_in_out [7:0] $end
$var wire 8 7# cpu_in [7:0] $end
$upscope $end
$scope module IR $end
$var wire 8 8# i_in [7:0] $end
$var wire 1 A s $end
$var reg 8 9# i_out [7:0] $end
$upscope $end
$scope module RAM256 $end
$var wire 8 :# a [7:0] $end
$var wire 8 ;# d_in [7:0] $end
$var wire 1 T e $end
$var wire 1 E s $end
$var wire 1 F sa $end
$var wire 8 <# d_out [7:0] $end
$var reg 8 =# addr_reg [7:0] $end
$upscope $end
$scope module TMP $end
$var wire 1 : s $end
$var wire 8 ># t_in [7:0] $end
$var reg 8 ?# t_out [7:0] $end
$upscope $end
$upscope $end
$scope module CPU_INIT $end
$var wire 1 + clk_e $end
$var wire 1 * clk_s $end
$var wire 1 . reset $end
$var wire 1 ! step_clk $end
$var wire 1 " set_ram $end
$var wire 1 $ set_addr $end
$var wire 8 @# number_of_instructions [7:0] $end
$var wire 1 % loading_ram $end
$var wire 8 A# instruction [7:0] $end
$var wire 1 B# en_rom $end
$var wire 8 C# address [7:0] $end
$scope module FSM $end
$var wire 1 + clk_e $end
$var wire 1 * clk_s $end
$var wire 1 B# enable_rom $end
$var wire 1 . reset $end
$var wire 1 $ set_address $end
$var wire 1 " set_ram $end
$var wire 1 ! step_clk $end
$var wire 8 D# noi [7:0] $end
$var wire 1 % loading_ram $end
$var parameter 2 E# DONE $end
$var parameter 2 F# INIT $end
$var parameter 2 G# SET_ADDR $end
$var parameter 2 H# SET_RAM $end
$var reg 8 I# address [7:0] $end
$var reg 8 J# instr_count [7:0] $end
$var reg 2 K# state_reg [1:0] $end
$upscope $end
$scope module ROM $end
$var wire 8 L# addr [7:0] $end
$var wire 1 B# en_data $end
$var wire 1 $ set_addr $end
$var reg 8 M# addr_reg [7:0] $end
$var reg 8 N# data [7:0] $end
$var reg 8 O# noi [7:0] $end
$upscope $end
$upscope $end
$upscope $end
$enddefinitions $end
$comment Show the parameter values. $end
$dumpall
b10 H#
b1 G#
b0 F#
b11 E#
b110 y
b1 x
b101 w
b11 v
b10 u
b111 t
b100 s
b0 r
$end
#0
$dumpvars
b10000 O#
b0 N#
b0 M#
b0 L#
b0 K#
bx J#
b0 I#
b10000 D#
b0 C#
0B#
b0 A#
b10000 @#
b0 ?#
b0 >#
b0 =#
b0 <#
b0 ;#
b0 :#
b0 9#
b0 8#
b0 7#
bz 6#
b0 5#
b0 4#
b0 3#
b0 2#
z1#
b0 0#
b0 /#
b0 .#
b0 -#
b0 ,#
b0 +#
b0 *#
b0 )#
b0 (#
b0 '#
b0 &#
b0 %#
b0 $#
b0 ##
b0 "#
b0 !#
b0 ~"
b0 }"
b0 |"
b0 {"
b1 z"
b1000000 y"
b0 x"
b1 w"
b0 v"
b1 u"
b0 t"
b1 s"
b0 r"
b1 q"
b0 p"
b0 o"
b0 n"
b0 m"
b1 l"
b0 k"
b1 j"
b0 i"
b1 h"
b0 g"
b1 f"
b0 e"
b0 d"
b0 c"
0b"
0a"
0`"
0_"
0^"
0]"
0\"
0["
0Z"
0Y"
0X"
1W"
1V"
1U"
0T"
0S"
0R"
0Q"
0P"
0O"
0N"
0M"
0L"
0K"
0J"
0I"
0H"
0G"
0F"
0E"
0D"
0C"
0B"
0A"
0@"
0?"
0>"
0="
0<"
0;"
0:"
09"
08"
07"
06"
05"
04"
03"
02"
01"
00"
0/"
1."
b0 -"
b0 ,"
b0 +"
b0 *"
b0 )"
b0 ("
b0 '"
b0 &"
b0 %"
b0 $"
b0 #"
b0 ""
b0 !"
b0 ~
b0 }
b0 |
b0 {
b0 z
b0 q
b0 p
b0 o
0n
0m
0l
b0 k
1j
0i
b0 h
b0 g
b0 f
0e
0d
0c
0b
b0 a
b0 `
b0 _
b1 ^
b0 ]
bz \
0[
0Z
0Y
0X
0W
0V
0U
0T
0S
b0 R
b0 Q
b0 P
b0 O
b0 N
b0 M
b0 L
b0 K
0J
b0 I
b0 H
b0 G
0F
0E
0D
0C
0B
0A
0@
0?
0>
0=
0<
0;
0:
b0 9
b0 8
b0 7
b0 6
b0 5
b0 4
b0 3
b0 2
b0 1
b0 0
0/
1.
1-
b0 ,
1+
0*
bz )
0(
0'
b0 &
1%
0$
0#
0"
1!
$end
#20000
1*
b1 o"
1/
#40000
0/
#60000
0!
0*
b10 o"
1/
#80000
0/
#100000
0+
b11 o"
1/
#120000
0/
#140000
1!
1+
b0 o"
1/
#160000
0/
#180000
1*
b1 o"
1/
#200000
0/
#220000
0!
0*
b10 o"
1/
#240000
0/
#260000
0+
b11 o"
1/
#280000
0/
#300000
1!
1+
b0 o"
1/
#320000
0/
#340000
1*
b1 o"
1/
#360000
0/
#380000
0!
0*
b10 o"
1/
#400000
0/
#420000
0+
b11 o"
1/
#440000
0/
#460000
1!
1+
b0 o"
1/
#480000
0/
#500000
1*
b1 o"
1/
#520000
0/
#540000
0!
0*
b10 o"
1/
#560000
0/
#580000
0+
b11 o"
1/
#600000
0/
0.
#620000
b1 K#
b10000 J#
1!
1+
b0 o"
1/
#640000
0/
#660000
1F
1$
1*
b1 o"
1/
#680000
0/
#700000
0F
0!
0$
0*
b10 o"
1/
#720000
0/
#740000
0+
b11 o"
1/
#760000
0/
#780000
b100000 G
b100000 ;#
b100000 &
b100000 L
b100000 A#
b100000 N#
1B#
b10 K#
1!
1+
b0 o"
1/
#800000
0/
#820000
1E
1"
1*
b1 o"
1/
#840000
0/
#860000
0E
0!
0"
0*
b10 o"
1/
#880000
0/
#900000
0B#
0+
b11 o"
1/
#920000
0/
#940000
b1 K#
b1 H
b1 :#
b1 ,
b1 a
b1 C#
b1 I#
b1 L#
b1111 J#
1!
0B#
1+
b0 o"
1/
#960000
0/
#980000
b1 =#
b1 M#
1F
1$
1*
b1 o"
1/
#1000000
0/
#1020000
0F
0!
0$
0*
b10 o"
1/
#1040000
0/
#1060000
0+
b11 o"
1/
#1080000
0/
#1100000
b0 G
b0 ;#
b0 &
b0 L
b0 A#
b0 N#
1B#
b10 K#
1!
1+
b0 o"
1/
#1120000
0/
#1140000
1E
1"
1*
b1 o"
1/
#1160000
0/
#1180000
0E
0!
0"
0*
b10 o"
1/
#1200000
0/
#1220000
0B#
0+
b11 o"
1/
#1240000
0/
#1260000
b1 K#
b10 H
b10 :#
b10 ,
b10 a
b10 C#
b10 I#
b10 L#
b1110 J#
1!
0B#
1+
b0 o"
1/
#1280000
0/
#1300000
b10 =#
b10 M#
1F
1$
1*
b1 o"
1/
#1320000
0/
#1340000
0F
0!
0$
0*
b10 o"
1/
#1360000
0/
#1380000
0+
b11 o"
1/
#1400000
0/
#1420000
b100001 G
b100001 ;#
b100001 &
b100001 L
b100001 A#
b100001 N#
1B#
b10 K#
1!
1+
b0 o"
1/
#1440000
0/
#1460000
1E
1"
1*
b1 o"
1/
#1480000
0/
#1500000
0E
0!
0"
0*
b10 o"
1/
#1520000
0/
#1540000
0B#
0+
b11 o"
1/
#1560000
0/
#1580000
b1 K#
b11 H
b11 :#
b11 ,
b11 a
b11 C#
b11 I#
b11 L#
b1101 J#
1!
0B#
1+
b0 o"
1/
#1600000
0/
#1620000
b11 =#
b11 M#
1F
1$
1*
b1 o"
1/
#1640000
0/
#1660000
0F
0!
0$
0*
b10 o"
1/
#1680000
0/
#1700000
0+
b11 o"
1/
#1720000
0/
#1740000
b101 G
b101 ;#
b101 &
b101 L
b101 A#
b101 N#
1B#
b10 K#
1!
1+
b0 o"
1/
#1760000
0/
#1780000
1E
1"
1*
b1 o"
1/
#1800000
0/
#1820000
0E
0!
0"
0*
b10 o"
1/
#1840000
0/
#1860000
0B#
0+
b11 o"
1/
#1880000
0/
#1900000
b1 K#
b100 H
b100 :#
b100 ,
b100 a
b100 C#
b100 I#
b100 L#
b1100 J#
1!
0B#
1+
b0 o"
1/
#1920000
0/
#1940000
b100 =#
b100 M#
1F
1$
1*
b1 o"
1/
#1960000
0/
#1980000
0F
0!
0$
0*
b10 o"
1/
#2000000
0/
#2020000
0+
b11 o"
1/
#2040000
0/
#2060000
b100010 G
b100010 ;#
b100010 &
b100010 L
b100010 A#
b100010 N#
1B#
b10 K#
1!
1+
b0 o"
1/
#2080000
0/
#2100000
1E
1"
1*
b1 o"
1/
#2120000
0/
#2140000
0E
0!
0"
0*
b10 o"
1/
#2160000
0/
#2180000
0B#
0+
b11 o"
1/
#2200000
0/
#2220000
b1 K#
b101 H
b101 :#
b101 ,
b101 a
b101 C#
b101 I#
b101 L#
b1011 J#
1!
0B#
1+
b0 o"
1/
#2240000
0/
#2260000
b101 =#
b101 M#
1F
1$
1*
b1 o"
1/
#2280000
0/
#2300000
0F
0!
0$
0*
b10 o"
1/
#2320000
0/
#2340000
0+
b11 o"
1/
#2360000
0/
#2380000
b11111111 G
b11111111 ;#
b11111111 &
b11111111 L
b11111111 A#
b11111111 N#
1B#
b10 K#
1!
1+
b0 o"
1/
#2400000
0/
#2420000
1E
1"
1*
b1 o"
1/
#2440000
0/
#2460000
0E
0!
0"
0*
b10 o"
1/
#2480000
0/
#2500000
0B#
0+
b11 o"
1/
#2520000
0/
#2540000
b1 K#
b110 H
b110 :#
b110 ,
b110 a
b110 C#
b110 I#
b110 L#
b1010 J#
1!
0B#
1+
b0 o"
1/
#2560000
0/
#2580000
b110 =#
b110 M#
1F
1$
1*
b1 o"
1/
#2600000
0/
#2620000
0F
0!
0$
0*
b10 o"
1/
#2640000
0/
#2660000
0+
b11 o"
1/
#2680000
0/
#2700000
b10000100 G
b10000100 ;#
b10000100 &
b10000100 L
b10000100 A#
b10000100 N#
1B#
b10 K#
1!
1+
b0 o"
1/
#2720000
0/
#2740000
1E
1"
1*
b1 o"
1/
#2760000
0/
#2780000
0E
0!
0"
0*
b10 o"
1/
#2800000
0/
#2820000
0B#
0+
b11 o"
1/
#2840000
0/
#2860000
b1 K#
b111 H
b111 :#
b111 ,
b111 a
b111 C#
b111 I#
b111 L#
b1001 J#
1!
0B#
1+
b0 o"
1/
#2880000
0/
#2900000
b111 =#
b111 M#
1F
1$
1*
b1 o"
1/
#2920000
0/
#2940000
0F
0!
0$
0*
b10 o"
1/
#2960000
0/
#2980000
0+
b11 o"
1/
#3000000
0/
#3020000
b10001001 G
b10001001 ;#
b10001001 &
b10001001 L
b10001001 A#
b10001001 N#
1B#
b10 K#
1!
1+
b0 o"
1/
#3040000
0/
#3060000
1E
1"
1*
b1 o"
1/
#3080000
0/
#3100000
0E
0!
0"
0*
b10 o"
1/
#3120000
0/
#3140000
0B#
0+
b11 o"
1/
#3160000
0/
#3180000
b1 K#
b1000 H
b1000 :#
b1000 ,
b1000 a
b1000 C#
b1000 I#
b1000 L#
b1000 J#
1!
0B#
1+
b0 o"
1/
#3200000
0/
#3220000
b1000 =#
b1000 M#
1F
1$
1*
b1 o"
1/
#3240000
0/
#3260000
0F
0!
0$
0*
b10 o"
1/
#3280000
0/
#3300000
0+
b11 o"
1/
#3320000
0/
#3340000
b1010001 G
b1010001 ;#
b1010001 &
b1010001 L
b1010001 A#
b1010001 N#
1B#
b10 K#
1!
1+
b0 o"
1/
#3360000
0/
#3380000
1E
1"
1*
b1 o"
1/
#3400000
0/
#3420000
0E
0!
0"
0*
b10 o"
1/
#3440000
0/
#3460000
0B#
0+
b11 o"
1/
#3480000
0/
#3500000
b1 K#
b1001 H
b1001 :#
b1001 ,
b1001 a
b1001 C#
b1001 I#
b1001 L#
b111 J#
1!
0B#
1+
b0 o"
1/
#3520000
0/
#3540000
b1001 =#
b1001 M#
1F
1$
1*
b1 o"
1/
#3560000
0/
#3580000
0F
0!
0$
0*
b10 o"
1/
#3600000
0/
#3620000
0+
b11 o"
1/
#3640000
0/
#3660000
b1100 G
b1100 ;#
b1100 &
b1100 L
b1100 A#
b1100 N#
1B#
b10 K#
1!
1+
b0 o"
1/
#3680000
0/
#3700000
1E
1"
1*
b1 o"
1/
#3720000
0/
#3740000
0E
0!
0"
0*
b10 o"
1/
#3760000
0/
#3780000
0B#
0+
b11 o"
1/
#3800000
0/
#3820000
b1 K#
b1010 H
b1010 :#
b1010 ,
b1010 a
b1010 C#
b1010 I#
b1010 L#
b110 J#
1!
0B#
1+
b0 o"
1/
#3840000
0/
#3860000
b1010 =#
b1010 M#
1F
1$
1*
b1 o"
1/
#3880000
0/
#3900000
0F
0!
0$
0*
b10 o"
1/
#3920000
0/
#3940000
0+
b11 o"
1/
#3960000
0/
#3980000
b1000000 G
b1000000 ;#
b1000000 &
b1000000 L
b1000000 A#
b1000000 N#
1B#
b10 K#
1!
1+
b0 o"
1/
#4000000
0/
#4020000
1E
1"
1*
b1 o"
1/
#4040000
0/
#4060000
0E
0!
0"
0*
b10 o"
1/
#4080000
0/
#4100000
0B#
0+
b11 o"
1/
#4120000
0/
#4140000
b1 K#
b1011 H
b1011 :#
b1011 ,
b1011 a
b1011 C#
b1011 I#
b1011 L#
b101 J#
1!
0B#
1+
b0 o"
1/
#4160000
0/
#4180000
b1011 =#
b1011 M#
1F
1$
1*
b1 o"
1/
#4200000
0/
#4220000
0F
0!
0$
0*
b10 o"
1/
#4240000
0/
#4260000
0+
b11 o"
1/
#4280000
0/
#4300000
b110 G
b110 ;#
b110 &
b110 L
b110 A#
b110 N#
1B#
b10 K#
1!
1+
b0 o"
1/
#4320000
0/
#4340000
1E
1"
1*
b1 o"
1/
#4360000
0/
#4380000
0E
0!
0"
0*
b10 o"
1/
#4400000
0/
#4420000
0B#
0+
b11 o"
1/
#4440000
0/
#4460000
b1 K#
b1100 H
b1100 :#
b1100 ,
b1100 a
b1100 C#
b1100 I#
b1100 L#
b100 J#
1!
0B#
1+
b0 o"
1/
#4480000
0/
#4500000
b1100 =#
b1100 M#
1F
1$
1*
b1 o"
1/
#4520000
0/
#4540000
0F
0!
0$
0*
b10 o"
1/
#4560000
0/
#4580000
0+
b11 o"
1/
#4600000
0/
#4620000
b1111000 G
b1111000 ;#
b1111000 &
b1111000 L
b1111000 A#
b1111000 N#
1B#
b10 K#
1!
1+
b0 o"
1/
#4640000
0/
#4660000
1E
1"
1*
b1 o"
1/
#4680000
0/
#4700000
0E
0!
0"
0*
b10 o"
1/
#4720000
0/
#4740000
0B#
0+
b11 o"
1/
#4760000
0/
#4780000
b1 K#
b1101 H
b1101 :#
b1101 ,
b1101 a
b1101 C#
b1101 I#
b1101 L#
b11 J#
1!
0B#
1+
b0 o"
1/
#4800000
0/
#4820000
b1101 =#
b1101 M#
1F
1$
1*
b1 o"
1/
#4840000
0/
#4860000
0F
0!
0$
0*
b10 o"
1/
#4880000
0/
#4900000
0+
b11 o"
1/
#4920000
0/
#4940000
b1000000 G
b1000000 ;#
b1000000 &
b1000000 L
b1000000 A#
b1000000 N#
1B#
b10 K#
1!
1+
b0 o"
1/
#4960000
0/
#4980000
1E
1"
1*
b1 o"
1/
#5000000
0/
#5020000
0E
0!
0"
0*
b10 o"
1/
#5040000
0/
#5060000
0B#
0+
b11 o"
1/
#5080000
0/
#5100000
b1 K#
b1110 H
b1110 :#
b1110 ,
b1110 a
b1110 C#
b1110 I#
b1110 L#
b10 J#
1!
0B#
1+
b0 o"
1/
#5120000
0/
#5140000
b1110 =#
b1110 M#
1F
1$
1*
b1 o"
1/
#5160000
0/
#5180000
0F
0!
0$
0*
b10 o"
1/
#5200000
0/
#5220000
0+
b11 o"
1/
#5240000
0/
#5260000
b1101 G
b1101 ;#
b1101 &
b1101 L
b1101 A#
b1101 N#
1B#
b10 K#
1!
1+
b0 o"
1/
#5280000
0/
#5300000
1E
1"
1*
b1 o"
1/
#5320000
0/
#5340000
0E
0!
0"
0*
b10 o"
1/
#5360000
0/
#5380000
0B#
0+
b11 o"
1/
#5400000
0/
#5420000
b1 K#
b1111 H
b1111 :#
b1111 ,
b1111 a
b1111 C#
b1111 I#
b1111 L#
b1 J#
1!
0B#
1+
b0 o"
1/
#5440000
0/
#5460000
b1111 =#
b1111 M#
1F
1$
1*
b1 o"
1/
#5480000
0/
#5500000
0F
0!
0$
0*
b10 o"
1/
#5520000
0/
#5540000
0+
b11 o"
1/
#5560000
0/
#5580000
b0 G
b0 ;#
b0 &
b0 L
b0 A#
b0 N#
1B#
b10 K#
1!
1+
b0 o"
1/
#5600000
0/
#5620000
1E
1"
1*
b1 o"
1/
#5640000
0/
#5660000
0E
0!
0"
0*
b10 o"
1/
#5680000
0/
#5700000
0B#
0+
b11 o"
1/
#5720000
0/
#5740000
0%
b11 K#
b0 H
b0 :#
b10000 ,
b10000 a
b10000 C#
b10000 I#
b10000 L#
b0 J#
1!
0B#
1+
b0 o"
1/
#5760000
0/
#5780000
1*
b1 o"
1/
#5800000
0/
#5820000
0!
0*
b10 o"
1/
#5840000
0/
#5860000
0+
b11 o"
1/
#5880000
0/
#5900000
b0 ,
b0 a
b0 C#
b0 I#
b0 L#
1!
1+
b0 o"
1/
#5920000
0/
#5940000
1*
b1 o"
1/
#5960000
0/
#5980000
0!
0*
b10 o"
1/
#6000000
0/
#6020000
0+
b11 o"
1/
#6040000
0/
#6060000
1!
1+
b0 o"
1/
#6080000
0/
#6100000
1*
b1 o"
1/
#6120000
0/
#6140000
0!
0*
b10 o"
1/
#6160000
0/
#6180000
0+
b11 o"
1/
#6200000
0/
#6220000
1!
1+
b0 o"
1/
#6240000
0/
#6260000
1*
b1 o"
1/
#6280000
0/
#6300000
0!
0*
b10 o"
1/
#6320000
0/
#6340000
0+
b11 o"
1/
#6360000
0/
#6380000
1!
1+
b0 o"
1/
#6400000
0/
#6420000
1*
b1 o"
1/
#6440000
0/
#6460000
0!
0*
b10 o"
1/
#6480000
0/
#6500000
0+
b11 o"
1/
#6520000
0/
#6540000
1!
1+
b0 o"
1/
#6560000
0/
#6580000
1*
b1 o"
1/
#6600000
0/
#6620000
0!
0*
b10 o"
1/
#6640000
0/
#6660000
0+
b11 o"
1/
#6680000
0/
#6700000
1!
1+
b0 o"
1/
#6720000
0/
#6740000
1*
b1 o"
1/
#6760000
0/
#6780000
0!
0*
b10 o"
1/
#6800000
0/
#6820000
0+
b11 o"
1/
#6840000
0/
#6860000
1!
1+
b0 o"
1/
#6880000
0/
#6900000
1*
b1 o"
1/
#6920000
0/
#6940000
0!
0*
b10 o"
1/
#6960000
0/
#6980000
0+
b11 o"
1/
#7000000
0/
#7020000
1!
1+
b0 o"
1/
#7040000
0/
#7060000
1*
b1 o"
1/
#7080000
0/
#7100000
0!
0*
b10 o"
1/
#7120000
0/
#7140000
0+
b11 o"
1/
#7160000
0/
#7180000
1!
1+
b0 o"
1/
#7200000
0/
#7220000
1*
b1 o"
1/
#7240000
0/
#7260000
0!
0*
b10 o"
1/
#7280000
0/
#7300000
0+
b11 o"
1/
#7320000
0/
#7340000
1!
1+
b0 o"
1/
#7360000
0/
#7380000
1*
b1 o"
1/
#7400000
0/
#7420000
0!
0*
b10 o"
1/
#7440000
0/
#7460000
0+
b11 o"
1/
#7480000
0/
#7500000
1!
1+
b0 o"
1/
#7520000
0/
#7540000
1*
b1 o"
1/
#7560000
0/
#7580000
0!
0*
b10 o"
1/
#7600000
0/
