Control_unit/control.vcd
$date
	Tue Jul 11 12:34:36 2023
$end
$version
	Icarus Verilog
$end
$timescale
	1ps
$end
$scope module control_TB $end
$var wire 1 ! s_TMP $end
$var wire 1 " s_RO $end
$var wire 1 # s_RAM $end
$var wire 1 $ s_R3 $end
$var wire 1 % s_R2 $end
$var wire 1 & s_R1 $end
$var wire 1 ' s_MAR $end
$var wire 1 ( s_IR $end
$var wire 1 ) s_IAR $end
$var wire 1 * s_FLAGS $end
$var wire 1 + s_ACC $end
$var wire 1 , e_RAM $end
$var wire 1 - e_R3 $end
$var wire 1 . e_R2 $end
$var wire 1 / e_R1 $end
$var wire 1 0 e_R0 $end
$var wire 1 1 e_IAR $end
$var wire 1 2 e_ACC $end
$var wire 3 3 alu_op [2:0] $end
$var wire 1 4 IO_input_or_output $end
$var wire 1 5 IO_data_or_address $end
$var wire 1 6 IO_clk_s $end
$var wire 1 7 IO_clk_e $end
$var wire 1 8 BUS1 $end
$var reg 4 9 flags [3:0] $end
$var reg 8 : instruction [0:7] $end
$var reg 1 ; reset $end
$var reg 1 < sys_clk $end
$scope module DUT $end
$var wire 1 = BUS0 $end
$var wire 1 8 BUS1 $end
$var wire 1 7 IO_clk_e $end
$var wire 1 6 IO_clk_s $end
$var wire 1 5 IO_data_or_address $end
$var wire 1 4 IO_input_or_output $end
$var wire 1 > a10 $end
$var wire 1 ? a11 $end
$var wire 1 @ a12 $end
$var wire 1 A a13 $end
$var wire 1 B a14 $end
$var wire 1 C a15 $end
$var wire 1 D a16 $end
$var wire 1 E a17 $end
$var wire 1 F a18 $end
$var wire 1 G a19 $end
$var wire 1 H a1a $end
$var wire 1 I a1b $end
$var wire 1 J a1c $end
$var wire 1 K a1d $end
$var wire 1 L a1e $end
$var wire 1 M a1f $end
$var wire 1 N a20 $end
$var wire 1 O a21 $end
$var wire 1 P a22 $end
$var wire 1 Q a23 $end
$var wire 1 R a24 $end
$var wire 1 S a25 $end
$var wire 1 T a26 $end
$var wire 1 U a27 $end
$var wire 1 V a28 $end
$var wire 1 W a29 $end
$var wire 1 X a2a $end
$var wire 1 Y a2b $end
$var wire 1 Z a5 $end
$var wire 1 [ a6 $end
$var wire 1 \ a7 $end
$var wire 1 ] a8 $end
$var wire 1 ^ a9 $end
$var wire 1 _ aa $end
$var wire 1 ` ab $end
$var wire 1 a ac $end
$var wire 1 2 e_ACC $end
$var wire 1 1 e_IAR $end
$var wire 1 0 e_R0 $end
$var wire 1 / e_R1 $end
$var wire 1 . e_R2 $end
$var wire 1 - e_R3 $end
$var wire 1 , e_RAM $end
$var wire 1 b flagA $end
$var wire 1 c flagC $end
$var wire 1 d flagE $end
$var wire 1 e flagZ $end
$var wire 4 f flags [3:0] $end
$var wire 8 g instruction [0:7] $end
$var wire 1 h n1 $end
$var wire 1 i n2 $end
$var wire 1 j n3 $end
$var wire 1 k o10 $end
$var wire 1 l o6 $end
$var wire 1 m o7 $end
$var wire 1 n o8 $end
$var wire 1 o o9 $end
$var wire 1 p oa $end
$var wire 1 q ob $end
$var wire 1 r oc $end
$var wire 1 s od $end
$var wire 1 t oe $end
$var wire 1 u of $end
$var wire 1 ; reset $end
$var wire 1 + s_ACC $end
$var wire 1 * s_FLAGS $end
$var wire 1 ) s_IAR $end
$var wire 1 ( s_IR $end
$var wire 1 ' s_MAR $end
$var wire 1 " s_R0 $end
$var wire 1 & s_R1 $end
$var wire 1 % s_R2 $end
$var wire 1 $ s_R3 $end
$var wire 1 # s_RAM $end
$var wire 1 ! s_TMP $end
$var wire 1 < sys_clk $end
$var wire 1 v stepper_clk $end
$var wire 6 w step [1:6] $end
$var wire 8 x dec4_out [7:0] $end
$var wire 3 y dec4_in [2:0] $end
$var wire 4 z dec3_out [3:0] $end
$var wire 2 { dec3_in [1:0] $end
$var wire 4 | dec2_out [3:0] $end
$var wire 2 } dec2_in [1:0] $end
$var wire 4 ~ dec1_out [3:0] $end
$var wire 2 !" dec1_in [1:0] $end
$var wire 1 "" clk_s $end
$var wire 1 #" clk_e $end
$var wire 3 $" OPCODE [2:0] $end
$scope module CLOCKS $end
$var wire 1 < sys_clk $end
$var wire 1 "" clk_s $end
$var wire 1 #" clk_e $end
$var wire 1 v clk $end
$var reg 2 %" clk_reg [1:0] $end
$upscope $end
$scope module DEC1 $end
$var wire 2 &" dec_in [1:0] $end
$var wire 4 '" dec_out [3:0] $end
$upscope $end
$scope module DEC2 $end
$var wire 2 (" dec_in [1:0] $end
$var wire 4 )" dec_out [3:0] $end
$upscope $end
$scope module DEC3 $end
$var wire 2 *" dec_in [1:0] $end
$var wire 4 +" dec_out [3:0] $end
$upscope $end
$scope module DEC4 $end
$var wire 3 ," dec_in [2:0] $end
$var wire 8 -" dec_out [7:0] $end
$upscope $end
$scope module STEPPER $end
$var wire 1 v clk $end
$var wire 1 ; reset $end
$var reg 6 ." step [5:0] $end
$upscope $end
$upscope $end
$upscope $end
$enddefinitions $end
$comment Show the parameter values. $end
$dumpall
$end
#0
$dumpvars
b100000 ."
b1 -"
b0 ,"
b10 +"
b1 *"
b1 )"
b0 ("
b10 '"
b1 &"
b0 %"
b0 $"
1#"
0""
b1 !"
b10 ~
b0 }
b1 |
b1 {
b10 z
b0 y
b1 x
b100000 w
1v
0u
1t
0s
1r
0q
0p
0o
0n
0m
1l
0k
1j
1i
0h
b10000001 g
b0 f
0e
0d
0c
0b
0a
0`
0_
0^
0]
0\
0[
0Z
0Y
0X
0W
0V
0U
0T
0S
0R
0Q
0P
0O
0N
0M
0L
0K
0J
0I
0H
0G
0F
0E
0D
0C
0B
0A
0@
0?
0>
0=
0<
1;
b10000001 :
b0 9
18
07
06
05
04
b0 3
02
11
00
0/
0.
0-
0,
0+
0*
0)
0(
0'
0&
0%
0$
0#
0"
0!
$end
#1000
1+
1'
1""
b1 %"
1<
#2000
0<
#3000
0v
0+
0'
0""
b10 %"
1<
#4000
0<
#5000
01
0#"
b11 %"
1<
#6000
0<
#7000
1v
11
1#"
b0 %"
1<
#8000
0<
#9000
1+
1'
1""
b1 %"
1<
#10000
0<
#11000
0v
0+
0'
0""
b10 %"
1<
#12000
0<
#13000
01
0#"
b11 %"
1<
#14000
0<
#15000
1v
11
1#"
b0 %"
1<
#16000
0<
#17000
1+
1'
1""
b1 %"
1<
#18000
0<
#19000
0v
0+
0'
0""
b10 %"
1<
#20000
0<
#21000
01
0#"
b11 %"
1<
#22000
0<
#23000
1v
11
1#"
b0 %"
1<
#24000
0<
#25000
1+
1'
1""
b1 %"
1<
#26000
0<
#27000
0v
0+
0'
0""
b10 %"
1<
#28000
0<
#29000
01
0#"
b11 %"
1<
#30000
0<
#31000
1v
11
1#"
b0 %"
1<
#32000
0<
#33000
1+
1'
1""
b1 %"
1<
#34000
0<
#35000
0v
0+
0'
0""
b10 %"
1<
#36000
0<
#37000
01
0#"
b11 %"
1<
#38000
0<
#39000
1v
11
1#"
b0 %"
1<
#40000
0<
#41000
1+
1'
1""
b1 %"
1<
#42000
0<
#43000
0v
0+
0'
0""
b10 %"
1<
#44000
0<
#45000
01
0#"
b11 %"
1<
#46000
0<
#47000
1v
11
1#"
b0 %"
1<
#48000
0<
0;
#49000
1+
1'
1""
b1 %"
1<
#50000
0<
#51000
0v
0+
0'
0""
b10 %"
1<
#52000
0<
#53000
01
0#"
b11 %"
1<
#54000
0<
#55000
1,
0r
1m
0t
0l
08
b10000 w
b10000 ."
1v
01
1#"
b0 %"
1<
#56000
0<
#57000
1(
1""
b1 %"
1<
#58000
0<
#59000
0v
0(
0""
b10 %"
1<
#60000
0<
#61000
0,
0#"
b11 %"
1<
#62000
0<
#63000
1s
12
0m
1n
b1000 w
b1000 ."
1v
0,
1#"
b0 %"
1<
#64000
0<
#65000
1)
1""
b1 %"
1<
#66000
0<
#67000
0v
0)
0""
b10 %"
1<
#68000
0<
#69000
02
0#"
b11 %"
1<
#70000
0<
#71000
1/
1[
0s
1o
1F
0n
b100 w
b100 ."
1v
02
1#"
b0 %"
1<
#72000
0<
#73000
1!
1""
b1 %"
1<
#74000
0<
#75000
0v
0!
0""
b10 %"
1<
#76000
0<
#77000
0/
0[
0#"
b11 %"
1<
#78000
0<
#79000
10
1^
1t
1u
1p
0o
1P
0F
b10 w
b10 ."
0/
1v
0[
1#"
b0 %"
1<
#80000
0<
#81000
1*
1+
1""
b1 %"
1<
#82000
0<
#83000
0v
0*
0+
0""
b10 %"
1<
#84000
0<
#85000
00
0^
0#"
b11 %"
1<
#86000
0<
#87000
12
1k
1n
0t
0u
0p
1W
0P
b1 w
b1 ."
00
1v
0^
1#"
b0 %"
1<
#88000
0<
#89000
1&
1""
b1 %"
1<
#90000
0<
#91000
0v
0&
0""
b10 %"
1<
#92000
0<
#93000
02
0#"
b11 %"
1<
#94000
0<
#95000
1r
0k
0n
11
1t
0W
1l
18
b100000 w
b100000 ."
1v
02
1#"
b0 %"
1<
#96000
b100 ~
b100 '"
b10 |
b10 )"
b100 z
b100 +"
b10 x
b10 -"
b10 !"
b10 &"
b1 }
b1 ("
b10 {
b10 *"
b1 y
b1 ,"
0<
b10010110 :
b10010110 g
#97000
1+
1'
1""
b1 %"
1<
#98000
0<
#99000
0v
0+
0'
0""
b10 %"
1<
#100000
0<
#101000
01
0#"
b11 %"
1<
#102000
0<
#103000
1,
0r
1m
0t
0l
08
b10000 w
b10000 ."
1v
01
1#"
b0 %"
1<
#104000
0<
#105000
1(
1""
b1 %"
1<
#106000
0<
#107000
0v
0(
0""
b10 %"
1<
#108000
0<
#109000
0,
0#"
b11 %"
1<
#110000
0<
#111000
1s
12
0m
1n
b1000 w
b1000 ."
1v
0,
1#"
b0 %"
1<
#112000
0<
#113000
1)
1""
b1 %"
1<
#114000
0<
#115000
0v
0)
0""
b10 %"
1<
#116000
0<
#117000
02
0#"
b11 %"
1<
#118000
0<
#119000
1.
1\
0s
1o
1F
0n
b100 w
b100 ."
1v
02
1#"
b0 %"
1<
#120000
0<
#121000
1!
1""
b1 %"
1<
#122000
0<
#123000
0v
0!
0""
b10 %"
1<
#124000
0<
#125000
0.
0\
0#"
b11 %"
1<
#126000
0<
#127000
1/
1_
1t
1u
1p
0o
1P
0F
b1 3
b1 $"
b10 w
b10 ."
0.
1v
0\
1#"
b0 %"
1<
#128000
0<
#129000
1*
1+
1""
b1 %"
1<
#130000
0<
#131000
0v
0*
0+
0""
b10 %"
1<
#132000
0<
#133000
0/
0_
0#"
b11 %"
1<
#134000
0<
#135000
12
1k
1n
0t
0u
0p
1W
0P
b0 3
b0 $"
b1 w
b1 ."
0/
1v
0_
1#"
b0 %"
1<
#136000
0<
#137000
1%
1""
b1 %"
1<
#138000
0<
#139000
0v
0%
0""
b10 %"
1<
#140000
0<
#141000
02
0#"
b11 %"
1<
#142000
0<
#143000
1r
0k
0n
11
1t
0W
1l
18
b100000 w
b100000 ."
1v
02
1#"
b0 %"
1<
#144000
0i
b1000 ~
b1000 '"
b100 |
b100 )"
b1000 z
b1000 +"
b100 x
b100 -"
b11 !"
b11 &"
b10 }
b10 ("
b11 {
b11 *"
b10 y
b10 ,"
0<
b10101011 :
b10101011 g
#145000
1+
1'
1""
b1 %"
1<
#146000
0<
#147000
0v
0+
0'
0""
b10 %"
1<
#148000
0<
#149000
01
0#"
b11 %"
1<
#150000
0<
#151000
1,
0r
1m
0t
0l
08
b10000 w
b10000 ."
1v
01
1#"
b0 %"
1<
#152000
0<
#153000
1(
1""
b1 %"
1<
#154000
0<
#155000
0v
0(
0""
b10 %"
1<
#156000
0<
#157000
0,
0#"
b11 %"
1<
#158000
0<
#159000
1s
12
0m
1n
b1000 w
b1000 ."
1v
0,
1#"
b0 %"
1<
#160000
0<
#161000
1)
1""
b1 %"
1<
#162000
0<
#163000
0v
0)
0""
b10 %"
1<
#164000
0<
#165000
02
0#"
b11 %"
1<
#166000
0<
#167000
1-
1]
0s
1o
1F
0n
b100 w
b100 ."
1v
02
1#"
b0 %"
1<
#168000
0<
#169000
1!
1""
b1 %"
1<
#170000
0<
#171000
0v
0!
0""
b10 %"
1<
#172000
0<
#173000
0-
0]
0#"
b11 %"
1<
#174000
0<
#175000
1.
1`
1t
1u
1p
0o
1P
0F
b10 3
b10 $"
b10 w
b10 ."
0-
1v
0]
1#"
b0 %"
1<
#176000
0<
#177000
1*
1+
1""
b1 %"
1<
#178000
0<
#179000
0v
0*
0+
0""
b10 %"
1<
#180000
0<
#181000
0.
0`
0#"
b11 %"
1<
#182000
0<
#183000
12
1k
1n
0t
0u
0p
1W
0P
b0 3
b0 $"
b1 w
b1 ."
0.
1v
0`
1#"
b0 %"
1<
#184000
0<
#185000
1$
1""
b1 %"
1<
#186000
0<
#187000
0v
0$
0""
b10 %"
1<
#188000
0<
#189000
02
0#"
b11 %"
1<
#190000
0<
#191000
1r
0k
0n
11
1t
0W
1l
18
b100000 w
b100000 ."
1v
02
1#"
b0 %"
1<
#192000
b1 ~
b1 '"
b1000 |
b1000 )"
b1 z
b1 +"
b1000 x
b1000 -"
b0 !"
b0 &"
b11 }
b11 ("
b0 {
b0 *"
b11 y
b11 ,"
0<
b10111100 :
b10111100 g
#193000
1+
1'
1""
b1 %"
1<
#194000
0<
#195000
0v
0+
0'
0""
b10 %"
1<
#196000
0<
#197000
01
0#"
b11 %"
1<
#198000
0<
#199000
1,
0r
1m
0t
0l
08
b10000 w
b10000 ."
1v
01
1#"
b0 %"
1<
#200000
0<
#201000
1(
1""
b1 %"
1<
#202000
0<
#203000
0v
0(
0""
b10 %"
1<
#204000
0<
#205000
0,
0#"
b11 %"
1<
#206000
0<
#207000
1s
12
0m
1n
b1000 w
b1000 ."
1v
0,
1#"
b0 %"
1<
#208000
0<
#209000
1)
1""
b1 %"
1<
#210000
0<
#211000
0v
0)
0""
b10 %"
1<
#212000
0<
#213000
02
0#"
b11 %"
1<
#214000
0<
#215000
10
1Z
0s
1o
1F
0n
b100 w
b100 ."
1v
02
1#"
b0 %"
1<
#216000
0<
#217000
1!
1""
b1 %"
1<
#218000
0<
#219000
0v
0!
0""
b10 %"
1<
#220000
0<
#221000
00
0Z
0#"
b11 %"
1<
#222000
0<
#223000
1-
1a
1t
1u
1p
0o
1P
0F
b11 3
b11 $"
b10 w
b10 ."
00
1v
0Z
1#"
b0 %"
1<
#224000
0<
#225000
1*
1+
1""
b1 %"
1<
#226000
0<
#227000
0v
0*
0+
0""
b10 %"
1<
#228000
0<
#229000
0-
0a
0#"
b11 %"
1<
#230000
0<
#231000
12
1k
1n
0t
0u
0p
1W
0P
b0 3
b0 $"
b1 w
b1 ."
0-
1v
0a
1#"
b0 %"
1<
#232000
0<
#233000
1"
1""
b1 %"
1<
#234000
0<
#235000
0v
0"
0""
b10 %"
1<
#236000
0<
#237000
02
0#"
b11 %"
1<
#238000
0<
#239000
1r
0k
0n
11
1t
0W
1l
18
b100000 w
b100000 ."
1v
02
1#"
b0 %"
1<
#240000
1i
b10 ~
b10 '"
b1 |
b1 )"
b10 z
b10 +"
b10000 x
b10000 -"
b1 !"
b1 &"
b0 }
b0 ("
b1 {
b1 *"
b100 y
b100 ,"
0<
b11000001 :
b11000001 g
#241000
1+
1'
1""
b1 %"
1<
#242000
0<
#243000
0v
0+
0'
0""
b10 %"
1<
#244000
0<
#245000
01
0#"
b11 %"
1<
#246000
0<
#247000
1,
0r
1m
0t
0l
08
b10000 w
b10000 ."
1v
01
1#"
b0 %"
1<
#248000
0<
#249000
1(
1""
b1 %"
1<
#250000
0<
#251000
0v
0(
0""
b10 %"
1<
#252000
0<
#253000
0,
0#"
b11 %"
1<
#254000
0<
#255000
1s
12
0m
1n
b1000 w
b1000 ."
1v
0,
1#"
b0 %"
1<
#256000
0<
#257000
1)
1""
b1 %"
1<
#258000
0<
#259000
0v
0)
0""
b10 %"
1<
#260000
0<
#261000
02
0#"
b11 %"
1<
#262000
0<
#263000
1/
1[
0s
1o
1F
0n
b100 w
b100 ."
1v
02
1#"
b0 %"
1<
#264000
0<
#265000
1!
1""
b1 %"
1<
#266000
0<
#267000
0v
0!
0""
b10 %"
1<
#268000
0<
#269000
0/
0[
0#"
b11 %"
1<
#270000
0<
#271000
10
1^
1t
1u
1p
0o
1P
0F
b100 3
b100 $"
b10 w
b10 ."
0/
1v
0[
1#"
b0 %"
1<
#272000
0<
#273000
1*
1+
1""
b1 %"
1<
#274000
0<
#275000
0v
0*
0+
0""
b10 %"
1<
#276000
0<
#277000
00
0^
0#"
b11 %"
1<
#278000
0<
#279000
12
1k
1n
0t
0u
0p
1W
0P
b0 3
b0 $"
b1 w
b1 ."
00
1v
0^
1#"
b0 %"
1<
#280000
0<
#281000
1&
1""
b1 %"
1<
#282000
0<
#283000
0v
0&
0""
b10 %"
1<
#284000
0<
#285000
02
0#"
b11 %"
1<
#286000
0<
#287000
1r
0k
0n
11
1t
0W
1l
18
b100000 w
b100000 ."
1v
02
1#"
b0 %"
1<
#288000
b100 ~
b100 '"
b10 |
b10 )"
b100 z
b100 +"
b100000 x
b100000 -"
b10 !"
b10 &"
b1 }
b1 ("
b10 {
b10 *"
b101 y
b101 ,"
0<
b11010110 :
b11010110 g
#289000
1+
1'
1""
b1 %"
1<
#290000
0<
#291000
0v
0+
0'
0""
b10 %"
1<
#292000
0<
#293000
01
0#"
b11 %"
1<
#294000
0<
#295000
1,
0r
1m
0t
0l
08
b10000 w
b10000 ."
1v
01
1#"
b0 %"
1<
#296000
0<
#297000
1(
1""
b1 %"
1<
#298000
0<
#299000
0v
0(
0""
b10 %"
1<
#300000
0<
#301000
0,
0#"
b11 %"
1<
#302000
0<
#303000
1s
12
0m
1n
b1000 w
b1000 ."
1v
0,
1#"
b0 %"
1<
#304000
0<
#305000
1)
1""
b1 %"
1<
#306000
0<
#307000
0v
0)
0""
b10 %"
1<
#308000
0<
#309000
02
0#"
b11 %"
1<
#310000
0<
#311000
1.
1\
0s
1o
1F
0n
b100 w
b100 ."
1v
02
1#"
b0 %"
1<
#312000
0<
#313000
1!
1""
b1 %"
1<
#314000
0<
#315000
0v
0!
0""
b10 %"
1<
#316000
0<
#317000
0.
0\
0#"
b11 %"
1<
#318000
0<
#319000
1/
1_
1t
1u
1p
0o
1P
0F
b101 3
b101 $"
b10 w
b10 ."
0.
1v
0\
1#"
b0 %"
1<
#320000
0<
#321000
1*
1+
1""
b1 %"
1<
#322000
0<
#323000
0v
0*
0+
0""
b10 %"
1<
#324000
0<
#325000
0/
0_
0#"
b11 %"
1<
#326000
0<
#327000
12
1k
1n
0t
0u
0p
1W
0P
b0 3
b0 $"
b1 w
b1 ."
0/
1v
0_
1#"
b0 %"
1<
#328000
0<
#329000
1%
1""
b1 %"
1<
#330000
0<
#331000
0v
0%
0""
b10 %"
1<
#332000
0<
#333000
02
0#"
b11 %"
1<
#334000
0<
#335000
1r
0k
0n
11
1t
0W
1l
18
b100000 w
b100000 ."
1v
02
1#"
b0 %"
1<
#336000
0i
b1000 ~
b1000 '"
b100 |
b100 )"
b1000 z
b1000 +"
b1000000 x
b1000000 -"
b11 !"
b11 &"
b10 }
b10 ("
b11 {
b11 *"
b110 y
b110 ,"
0<
b11101011 :
b11101011 g
#337000
1+
1'
1""
b1 %"
1<
#338000
0<
#339000
0v
0+
0'
0""
b10 %"
1<
#340000
0<
#341000
01
0#"
b11 %"
1<
#342000
0<
#343000
1,
0r
1m
0t
0l
08
b10000 w
b10000 ."
1v
01
1#"
b0 %"
1<
#344000
0<
#345000
1(
1""
b1 %"
1<
#346000
0<
#347000
0v
0(
0""
b10 %"
1<
#348000
0<
#349000
0,
0#"
b11 %"
1<
#350000
0<
#351000
1s
12
0m
1n
b1000 w
b1000 ."
1v
0,
1#"
b0 %"
1<
#352000
0<
#353000
1)
1""
b1 %"
1<
#354000
0<
#355000
0v
0)
0""
b10 %"
1<
#356000
0<
#357000
02
0#"
b11 %"
1<
#358000
0<
#359000
1-
1]
0s
1o
1F
0n
b100 w
b100 ."
1v
02
1#"
b0 %"
1<
#360000
0<
#361000
1!
1""
b1 %"
1<
#362000
0<
#363000
0v
0!
0""
b10 %"
1<
#364000
0<
#365000
0-
0]
0#"
b11 %"
1<
#366000
0<
#367000
1.
1`
1t
1u
1p
0o
1P
0F
b110 3
b110 $"
b10 w
b10 ."
0-
1v
0]
1#"
b0 %"
1<
#368000
0<
#369000
1*
1+
1""
b1 %"
1<
#370000
0<
#371000
0v
0*
0+
0""
b10 %"
1<
#372000
0<
#373000
0.
0`
0#"
b11 %"
1<
#374000
0<
#375000
12
1k
1n
0t
0u
0p
1W
0P
b0 3
b0 $"
b1 w
b1 ."
0.
1v
0`
1#"
b0 %"
1<
#376000
0<
#377000
1$
1""
b1 %"
1<
#378000
0<
#379000
0v
0$
0""
b10 %"
1<
#380000
0<
#381000
02
0#"
b11 %"
1<
#382000
0<
#383000
1r
0k
0n
11
1t
0W
1l
18
b100000 w
b100000 ."
1v
02
1#"
b0 %"
1<
#384000
0j
1O
b1 ~
b1 '"
b1000 |
b1000 )"
b1 z
b1 +"
b10000000 x
b10000000 -"
b0 !"
b0 &"
b11 }
b11 ("
b0 {
b0 *"
b111 y
b111 ,"
0<
b11111100 :
b11111100 g
#385000
1+
1'
1""
b1 %"
1<
#386000
0<
#387000
0v
0+
0'
0""
b10 %"
1<
#388000
0<
#389000
01
0#"
b11 %"
1<
#390000
0<
#391000
1,
0r
1m
0t
0l
08
b10000 w
b10000 ."
1v
01
1#"
b0 %"
1<
#392000
0<
#393000
1(
1""
b1 %"
1<
#394000
0<
#395000
0v
0(
0""
b10 %"
1<
#396000
0<
#397000
0,
0#"
b11 %"
1<
#398000
0<
#399000
1s
12
0m
1n
b1000 w
b1000 ."
1v
0,
1#"
b0 %"
1<
#400000
0<
#401000
1)
1""
b1 %"
1<
#402000
0<
#403000
0v
0)
0""
b10 %"
1<
#404000
0<
#405000
02
0#"
b11 %"
1<
#406000
0<
#407000
10
1Z
0s
1o
1F
0n
b100 w
b100 ."
1v
02
1#"
b0 %"
1<
#408000
0<
#409000
1!
1""
b1 %"
1<
#410000
0<
#411000
0v
0!
0""
b10 %"
1<
#412000
0<
#413000
00
0Z
0#"
b11 %"
1<
#414000
0<
#415000
1-
1a
1t
1u
1p
0o
1P
0F
b111 3
b111 $"
b10 w
b10 ."
00
1v
0Z
1#"
b0 %"
1<
#416000
0<
#417000
1*
1+
1""
b1 %"
1<
#418000
0<
#419000
0v
0*
0+
0""
b10 %"
1<
#420000
0<
#421000
0-
0a
0#"
b11 %"
1<
#422000
0<
#423000
0t
0u
0p
0P
b0 3
b0 $"
b1 w
b1 ."
0-
1v
0a
1#"
b0 %"
1<
#424000
0<
#425000
1""
b1 %"
1<
#426000
0<
#427000
0v
0""
b10 %"
1<
#428000
0<
#429000
0#"
b11 %"
1<
#430000
0<
#431000
1r
11
1t
1l
18
b100000 w
b100000 ."
1v
1#"
b0 %"
1<
#432000
1>
1j
1h
0O
b1000 ~
b1000 '"
b100 |
b100 )"
b1000 z
b1000 +"
b1 x
b1 -"
b11 !"
b11 &"
b10 }
b10 ("
b11 {
b11 *"
b0 y
b0 ,"
0<
b1011 :
b1011 g
#433000
1+
1'
1""
b1 %"
1<
#434000
0<
#435000
0v
0+
0'
0""
b10 %"
1<
#436000
0<
#437000
01
0#"
b11 %"
1<
#438000
0<
#439000
1,
0r
1m
0t
0l
08
b10000 w
b10000 ."
1v
01
1#"
b0 %"
1<
#440000
0<
#441000
1(
1""
b1 %"
1<
#442000
0<
#443000
0v
0(
0""
b10 %"
1<
#444000
0<
#445000
0,
0#"
b11 %"
1<
#446000
0<
#447000
1s
12
0m
1n
b1000 w
b1000 ."
1v
0,
1#"
b0 %"
1<
#448000
0<
#449000
1)
1""
b1 %"
1<
#450000
0<
#451000
0v
0)
0""
b10 %"
1<
#452000
0<
#453000
02
0#"
b11 %"
1<
#454000
0<
#455000
1.
1r
1`
0s
1p
1G
0n
b100 w
b100 ."
1v
02
1#"
b0 %"
1<
#456000
0<
#457000
1'
1""
b1 %"
1<
#458000
0<
#459000
0v
0'
0""
b10 %"
1<
#460000
0<
#461000
0.
0`
0#"
b11 %"
1<
#462000
0<
#463000
1,
1m
0r
1k
0p
1Q
0G
b10 w
b10 ."
0.
1v
0`
1#"
b0 %"
1<
#464000
0<
#465000
1$
1""
b1 %"
1<
#466000
0<
#467000
0v
0$
0""
b10 %"
1<
#468000
0<
#469000
0,
0#"
b11 %"
1<
#470000
0<
#471000
0m
0k
0Q
b1 w
b1 ."
1v
0,
1#"
b0 %"
1<
#472000
0<
#473000
1""
b1 %"
1<
#474000
0<
#475000
0v
0""
b10 %"
1<
#476000
0<
#477000
0#"
b11 %"
1<
#478000
0<
#479000
1r
11
1t
1l
18
b100000 w
b100000 ."
1v
1#"
b0 %"
1<
#480000
1?
0>
1i
b10 ~
b10 '"
b1 |
b1 )"
b10 z
b10 +"
b10 x
b10 -"
b1 !"
b1 &"
b0 }
b0 ("
b1 {
b1 *"
b1 y
b1 ,"
0<
b10001 :
b10001 g
#481000
1+
1'
1""
b1 %"
1<
#482000
0<
#483000
0v
0+
0'
0""
b10 %"
1<
#484000
0<
#485000
01
0#"
b11 %"
1<
#486000
0<
#487000
1,
0r
1m
0t
0l
08
b10000 w
b10000 ."
1v
01
1#"
b0 %"
1<
#488000
0<
#489000
1(
1""
b1 %"
1<
#490000
0<
#491000
0v
0(
0""
b10 %"
1<
#492000
0<
#493000
0,
0#"
b11 %"
1<
#494000
0<
#495000
1s
12
0m
1n
b1000 w
b1000 ."
1v
0,
1#"
b0 %"
1<
#496000
0<
#497000
1)
1""
b1 %"
1<
#498000
0<
#499000
0v
0)
0""
b10 %"
1<
#500000
0<
#501000
02
0#"
b11 %"
1<
#502000
0<
#503000
10
1r
1^
0s
1p
1H
0n
b100 w
b100 ."
1v
02
1#"
b0 %"
1<
#504000
0<
#505000
1'
1""
b1 %"
1<
#506000
0<
#507000
0v
0'
0""
b10 %"
1<
#508000
0<
#509000
00
0^
0#"
b11 %"
1<
#510000
0<
#511000
1/
1[
0r
1o
0p
1R
0H
b10 w
b10 ."
00
1v
0^
1#"
b0 %"
1<
#512000
0<
#513000
1#
1""
b1 %"
1<
#514000
0<
#515000
0v
0#
0""
b10 %"
1<
#516000
0<
#517000
0/
0[
0#"
b11 %"
1<
#518000
0<
#519000
0o
0R
b1 w
b1 ."
0/
1v
0[
1#"
b0 %"
1<
#520000
0<
#521000
1""
b1 %"
1<
#522000
0<
#523000
0v
0""
b10 %"
1<
#524000
0<
#525000
0#"
b11 %"
1<
#526000
0<
#527000
1r
11
1t
1l
18
b100000 w
b100000 ."
1v
1#"
b0 %"
1<
#528000
1@
0?
b100 ~
b100 '"
b100 z
b100 +"
b100 x
b100 -"
b10 !"
b10 &"
b10 {
b10 *"
b10 y
b10 ,"
0<
b100010 :
b100010 g
#529000
1+
1'
1""
b1 %"
1<
#530000
0<
#531000
0v
0+
0'
0""
b10 %"
1<
#532000
0<
#533000
01
0#"
b11 %"
1<
#534000
0<
#535000
1,
0r
1m
0t
0l
08
b10000 w
b10000 ."
1v
01
1#"
b0 %"
1<
#536000
0<
#537000
1(
1""
b1 %"
1<
#538000
0<
#539000
0v
0(
0""
b10 %"
1<
#540000
0<
#541000
0,
0#"
b11 %"
1<
#542000
0<
#543000
1s
12
0m
1n
b1000 w
b1000 ."
1v
0,
1#"
b0 %"
1<
#544000
0<
#545000
1)
1""
b1 %"
1<
#546000
0<
#547000
0v
0)
0""
b10 %"
1<
#548000
0<
#549000
02
0#"
b11 %"
1<
#550000
0<
#551000
1r
11
0s
1t
1l
18
1I
0n
b100 w
b100 ."
1v
02
1#"
b0 %"
1<
#552000
0<
#553000
1+
1'
1""
b1 %"
1<
#554000
0<
#555000
0v
0+
0'
0""
b10 %"
1<
#556000
0<
#557000
01
0#"
b11 %"
1<
#558000
0<
#559000
1,
1m
0r
1k
0t
0l
08
1S
0I
b10 w
b10 ."
1v
01
1#"
b0 %"
1<
#560000
0<
#561000
1%
1""
b1 %"
1<
#562000
0<
#563000
0v
0%
0""
b10 %"
1<
#564000
0<
#565000
0,
0#"
b11 %"
1<
#566000
0<
#567000
1s
12
0m
1n
0k
1X
0S
b1 w
b1 ."
1v
0,
1#"
b0 %"
1<
#568000
0<
#569000
1)
1""
b1 %"
1<
#570000
0<
#571000
0v
0)
0""
b10 %"
1<
#572000
0<
#573000
02
0#"
b11 %"
1<
#574000
0<
#575000
0s
1r
0n
11
1t
0X
1l
18
b100000 w
b100000 ."
1v
02
1#"
b0 %"
1<
#576000
1A
0@
0i
b1 ~
b1 '"
b1000 |
b1000 )"
b1 z
b1 +"
b1000 x
b1000 -"
b0 !"
b0 &"
b11 }
b11 ("
b0 {
b0 *"
b11 y
b11 ,"
0<
b111100 :
b111100 g
#577000
1+
1'
1""
b1 %"
1<
#578000
0<
#579000
0v
0+
0'
0""
b10 %"
1<
#580000
0<
#581000
01
0#"
b11 %"
1<
#582000
0<
#583000
1,
0r
1m
0t
0l
08
b10000 w
b10000 ."
1v
01
1#"
b0 %"
1<
#584000
0<
#585000
1(
1""
b1 %"
1<
#586000
0<
#587000
0v
0(
0""
b10 %"
1<
#588000
0<
#589000
0,
0#"
b11 %"
1<
#590000
0<
#591000
1s
12
0m
1n
b1000 w
b1000 ."
1v
0,
1#"
b0 %"
1<
#592000
0<
#593000
1)
1""
b1 %"
1<
#594000
0<
#595000
0v
0)
0""
b10 %"
1<
#596000
0<
#597000
02
0#"
b11 %"
1<
#598000
0<
#599000
10
1Z
1o
1J
0n
b100 w
b100 ."
1v
02
1#"
b0 %"
1<
#600000
0<
#601000
1)
1""
b1 %"
1<
#602000
0<
#603000
0v
0)
0""
b10 %"
1<
#604000
0<
#605000
00
0Z
0#"
b11 %"
1<
#606000
0<
